ctau,efficiency,eff_up,eff_down
0.1,0,0,0
0.12,0,0,0
0.14,0,0,0
0.16,0,0,0
0.18,0,0,0
0.2,0,0,0
0.3,0,0,0
0.4,0,0,0
0.5,0,0,0
0.6,0,0,0
0.7,0,0,0
0.8,0,0,0
0.9,0,0,0
1,0,0,0
1.2,0,0,0
1.4,0,0,0
1.6,0,0,0
1.8,0,0,0
2,0,0,0
3,1.4013e-44,1.4013e-44,1.4013e-44
4,4.99312e-34,4.99312e-34,4.99312e-34
5,9.52639e-28,1.95302e-27,-4.77398e-29
6,1.37038e-23,2.74056e-23,2.11017e-27
7,1.21913e-20,2.43787e-20,4.02722e-24
8,1.91634e-18,3.83146e-18,1.21453e-21
9,9.52364e-17,1.90368e-16,1.05096e-19
10,2.11993e-15,4.23612e-15,3.7467e-18
11,2.63677e-14,5.26659e-14,6.9613e-17
12,2.12291e-13,4.23792e-13,7.90646e-16
13,1.22466e-12,2.44319e-12,6.14013e-15
14,5.44208e-12,1.08488e-11,3.53532e-14
15,1.96415e-11,3.91227e-11,1.60219e-13
20,1.60739e-09,3.1846e-09,3.01712e-11
25,2.0607e-08,4.05143e-08,6.99693e-10
30,1.07137e-07,2.0807e-07,6.20501e-09
35,3.39529e-07,6.46493e-07,3.25655e-08
40,8.03428e-07,1.48672e-06,1.20133e-07
45,1.58364e-06,2.82763e-06,3.39654e-07
50,2.7639e-06,4.7469e-06,7.80893e-07
55,4.42252e-06,7.31748e-06,1.52756e-06
60,6.62329e-06,1.06129e-05,2.63371e-06
65,9.4068e-06,1.46993e-05,4.11435e-06
70,1.27858e-05,1.96201e-05,5.95152e-06
75,1.67457e-05,2.53832e-05,8.10822e-06
80,2.12485e-05,3.19558e-05,1.05411e-05
85,2.62384e-05,3.92688e-05,1.32079e-05
90,3.16482e-05,4.72261e-05,1.60703e-05
95,3.74048e-05,5.57158e-05,1.90937e-05
100,4.34335e-05,6.46194e-05,2.22477e-05
105,4.9662e-05,7.38197e-05,2.55042e-05
110,5.60218e-05,8.32061e-05,2.88376e-05
115,6.24509e-05,9.26772e-05,3.22247e-05
120,6.88936e-05,0.000102143,3.56439e-05
125,7.53015e-05,0.000111527,3.90761e-05
130,8.16328e-05,0.000120762,4.25035e-05
135,8.78526e-05,0.000129795,4.59107e-05
140,9.39319e-05,0.00013858,4.92837e-05
145,9.98474e-05,0.000147084,5.26105e-05
150,0.000105581,0.00015528,5.58808e-05
155,0.000111118,0.00016315,5.90859e-05
160,0.000116449,0.000170679,6.22184e-05
165,0.000121567,0.000177861,6.52725e-05
170,0.000126468,0.000184692,6.82433e-05
175,0.00013115,0.000191172,7.11273e-05
180,0.000135614,0.000197305,7.39219e-05
185,0.000139861,0.000203096,7.66255e-05
190,0.000143895,0.000208553,7.92369e-05
195,0.00014772,0.000213684,8.17558e-05
200,0.000151341,0.0002185,8.41827e-05
205,0.000154764,0.000223011,8.65179e-05
210,0.000157996,0.000227229,8.87627e-05
215,0.000161042,0.000231165,9.09186e-05
220,0.00016391,0.000234832,9.29872e-05
225,0.000166606,0.000238241,9.49703e-05
230,0.000169137,0.000241404,9.68702e-05
235,0.000171511,0.000244333,9.8689e-05
240,0.000173734,0.00024704,0.000100429
245,0.000175813,0.000249534,0.000102093
250,0.000177755,0.000251828,0.000103682
255,0.000179565,0.000253931,0.0001052
260,0.000181251,0.000255853,0.000106648
265,0.000182817,0.000257605,0.00010803
270,0.000184271,0.000259195,0.000109347
275,0.000185617,0.000260632,0.000110602
280,0.000186862,0.000261925,0.000111798
285,0.000188009,0.000263082,0.000112936
290,0.000189065,0.000264111,0.000114018
295,0.000190033,0.000265018,0.000115047
300,0.000190918,0.000265811,0.000116025
305,0.000191725,0.000266496,0.000116954
310,0.000192458,0.000267081,0.000117836
315,0.000193121,0.000267569,0.000118673
320,0.000193717,0.000267968,0.000119466
325,0.00019425,0.000268283,0.000120218
330,0.000194724,0.000268518,0.00012093
335,0.000195141,0.000268679,0.000121603
340,0.000195505,0.00026877,0.00012224
345,0.000195818,0.000268795,0.000122842
350,0.000196084,0.000268759,0.00012341
355,0.000196306,0.000268665,0.000123946
360,0.000196484,0.000268517,0.000124452
365,0.000196623,0.000268318,0.000124928
370,0.000196724,0.000268072,0.000125376
375,0.000196789,0.000267782,0.000125797
380,0.000196821,0.00026745,0.000126193
385,0.000196822,0.00026708,0.000126563
390,0.000196793,0.000266674,0.000126911
395,0.000196735,0.000266235,0.000127236
400,0.000196652,0.000265764,0.00012754
405,0.000196544,0.000265264,0.000127823
410,0.000196413,0.000264738,0.000128087
415,0.00019626,0.000264187,0.000128332
420,0.000196086,0.000263613,0.00012856
425,0.000195894,0.000263017,0.000128771
430,0.000195684,0.000262402,0.000128966
435,0.000195457,0.000261769,0.000129145
440,0.000195215,0.000261119,0.00012931
445,0.000194958,0.000260455,0.000129461
450,0.000194687,0.000259776,0.000129599
455,0.000194404,0.000259085,0.000129724
460,0.00019411,0.000258383,0.000129837
465,0.000193804,0.00025767,0.000129938
470,0.000193489,0.000256948,0.000130029
475,0.000193164,0.000256219,0.00013011
480,0.000192831,0.000255481,0.00013018
485,0.000192489,0.000254737,0.000130241
490,0.000192141,0.000253988,0.000130294
495,0.000191786,0.000253234,0.000130338
500,0.000191425,0.000252476,0.000130373
505,0.000191058,0.000251715,0.000130402
510,0.000190687,0.000250951,0.000130423
515,0.000190311,0.000250185,0.000130437
520,0.000189931,0.000249418,0.000130444
525,0.000189548,0.00024865,0.000130445
530,0.000189161,0.000247881,0.000130441
535,0.000188771,0.000247112,0.00013043
540,0.00018838,0.000246345,0.000130415
545,0.000187986,0.000245578,0.000130394
550,0.00018759,0.000244812,0.000130368
555,0.000187194,0.000244049,0.000130338
560,0.000186796,0.000243288,0.000130304
565,0.000186397,0.000242529,0.000130265
570,0.000185998,0.000241773,0.000130223
575,0.000185598,0.00024102,0.000130176
580,0.000185198,0.000240271,0.000130126
585,0.000184799,0.000239525,0.000130073
590,0.0001844,0.000238783,0.000130016
595,0.000184001,0.000238046,0.000129957
600,0.000183603,0.000237313,0.000129894
605,0.000183207,0.000236584,0.000129829
610,0.000182811,0.000235861,0.000129761
615,0.000182416,0.000235142,0.000129691
620,0.000182023,0.000234429,0.000129618
625,0.000181631,0.00023372,0.000129543
630,0.000181241,0.000233018,0.000129465
635,0.000180853,0.00023232,0.000129386
640,0.000180467,0.000231629,0.000129304
645,0.000180082,0.000230943,0.000129221
650,0.0001797,0.000230263,0.000129136
655,0.00017932,0.00022959,0.000129049
660,0.000178942,0.000228922,0.000128961
665,0.000178566,0.00022826,0.000128871
670,0.000178193,0.000227605,0.00012878
675,0.000177822,0.000226956,0.000128687
680,0.000177453,0.000226314,0.000128593
685,0.000177088,0.000225678,0.000128497
690,0.000176725,0.000225048,0.000128401
695,0.000176364,0.000224425,0.000128303
700,0.000176006,0.000223809,0.000128204
705,0.000175652,0.000223199,0.000128104
710,0.0001753,0.000222596,0.000128003
715,0.00017495,0.000222,0.000127901
720,0.000174604,0.00022141,0.000127798
725,0.000174261,0.000220827,0.000127694
730,0.00017392,0.00022025,0.00012759
735,0.000173583,0.000219681,0.000127485
740,0.000173248,0.000219118,0.000127378
745,0.000172917,0.000218562,0.000127272
750,0.000172588,0.000218013,0.000127164
755,0.000172263,0.00021747,0.000127056
760,0.000171941,0.000216934,0.000126948
765,0.000171621,0.000216405,0.000126838
770,0.000171305,0.000215882,0.000126729
775,0.000170992,0.000215366,0.000126618
780,0.000170682,0.000214857,0.000126508
785,0.000170375,0.000214354,0.000126397
790,0.000170072,0.000213859,0.000126285
795,0.000169771,0.000213369,0.000126173
800,0.000169474,0.000212887,0.000126061
805,0.000169179,0.00021241,0.000125948
810,0.000168888,0.000211941,0.000125836
815,0.0001686,0.000211478,0.000125722
820,0.000168315,0.000211021,0.000125609
825,0.000168033,0.000210571,0.000125496
830,0.000167754,0.000210127,0.000125382
835,0.000167479,0.000209689,0.000125268
840,0.000167206,0.000209258,0.000125154
845,0.000166937,0.000208833,0.00012504
850,0.00016667,0.000208415,0.000124926
855,0.000166407,0.000208002,0.000124812
860,0.000166147,0.000207596,0.000124697
865,0.00016589,0.000207196,0.000124583
870,0.000165635,0.000206802,0.000124469
875,0.000165384,0.000206414,0.000124354
880,0.000165136,0.000206032,0.00012424
885,0.000164891,0.000205656,0.000124126
890,0.000164649,0.000205286,0.000124012
895,0.00016441,0.000204922,0.000123898
900,0.000164174,0.000204563,0.000123784
905,0.00016394,0.00020421,0.00012367
910,0.00016371,0.000203863,0.000123557
915,0.000163483,0.000203522,0.000123443
920,0.000163258,0.000203187,0.00012333
925,0.000163037,0.000202856,0.000123217
930,0.000162818,0.000202532,0.000123104
935,0.000162602,0.000202213,0.000122992
940,0.000162389,0.000201899,0.000122879
945,0.000162179,0.000201591,0.000122767
950,0.000161972,0.000201288,0.000122655
955,0.000161767,0.000200991,0.000122544
960,0.000161565,0.000200698,0.000122432
965,0.000161366,0.000200411,0.000122321
970,0.00016117,0.000200129,0.000122211
975,0.000160977,0.000199853,0.0001221
980,0.000160786,0.000199581,0.00012199
985,0.000160597,0.000199314,0.000121881
990,0.000160412,0.000199052,0.000121771
995,0.000160229,0.000198796,0.000121662
1000,0.000160049,0.000198544,0.000121554
1005,0.000159871,0.000198297,0.000121445
1010,0.000159696,0.000198054,0.000121337
1015,0.000159523,0.000197817,0.00012123
1020,0.000159353,0.000197584,0.000121123
1025,0.000159186,0.000197355,0.000121016
1030,0.000159021,0.000197132,0.000120909
1035,0.000158858,0.000196913,0.000120803
1040,0.000158698,0.000196698,0.000120698
1045,0.00015854,0.000196488,0.000120592
1050,0.000158385,0.000196283,0.000120487
1055,0.000158232,0.000196081,0.000120383
1060,0.000158081,0.000195884,0.000120279
1065,0.000157933,0.000195692,0.000120175
1070,0.000157787,0.000195503,0.000120072
1075,0.000157644,0.000195319,0.000119969
1080,0.000157503,0.00019514,0.000119866
1085,0.000157364,0.000194964,0.000119764
1090,0.000157227,0.000194792,0.000119662
1095,0.000157092,0.000194624,0.00011956
1100,0.00015696,0.000194461,0.000119459
1105,0.00015683,0.000194301,0.000119358
1110,0.000156702,0.000194146,0.000119258
1115,0.000156576,0.000193994,0.000119158
1120,0.000156452,0.000193846,0.000119058
1125,0.00015633,0.000193702,0.000118959
1130,0.000156211,0.000193562,0.000118859
1135,0.000156093,0.000193425,0.000118761
1140,0.000155977,0.000193292,0.000118662
1145,0.000155864,0.000193163,0.000118564
1150,0.000155752,0.000193038,0.000118466
1155,0.000155642,0.000192916,0.000118368
1160,0.000155534,0.000192798,0.000118271
1165,0.000155428,0.000192683,0.000118174
1170,0.000155324,0.000192572,0.000118077
1175,0.000155222,0.000192464,0.000117981
1180,0.000155122,0.00019236,0.000117884
1185,0.000155023,0.000192259,0.000117788
1190,0.000154927,0.000192161,0.000117692
1195,0.000154832,0.000192067,0.000117597
1200,0.000154739,0.000191976,0.000117501
1205,0.000154647,0.000191888,0.000117406
1210,0.000154557,0.000191804,0.000117311
1215,0.000154469,0.000191723,0.000117216
1220,0.000154383,0.000191645,0.000117121
1225,0.000154298,0.00019157,0.000117026
1230,0.000154215,0.000191498,0.000116932
1235,0.000154133,0.00019143,0.000116837
1240,0.000154053,0.000191364,0.000116743
1245,0.000153975,0.000191301,0.000116649
1250,0.000153898,0.000191242,0.000116554
1255,0.000153823,0.000191185,0.00011646
1260,0.000153749,0.000191131,0.000116366
1265,0.000153676,0.00019108,0.000116272
1270,0.000153605,0.000191032,0.000116178
1275,0.000153536,0.000190987,0.000116084
1280,0.000153468,0.000190945,0.00011599
1285,0.000153401,0.000190905,0.000115896
1290,0.000153335,0.000190868,0.000115802
1295,0.000153271,0.000190834,0.000115708
1300,0.000153209,0.000190803,0.000115614
1305,0.000153147,0.000190774,0.00011552
1310,0.000153087,0.000190748,0.000115426
1315,0.000153028,0.000190724,0.000115332
1320,0.00015297,0.000190703,0.000115237
1325,0.000152914,0.000190685,0.000115143
1330,0.000152859,0.000190669,0.000115048
1335,0.000152805,0.000190655,0.000114954
1340,0.000152752,0.000190644,0.000114859
1345,0.0001527,0.000190636,0.000114764
1350,0.000152649,0.00019063,0.000114669
1355,0.0001526,0.000190626,0.000114574
1360,0.000152551,0.000190624,0.000114478
1365,0.000152504,0.000190625,0.000114383
1370,0.000152458,0.000190628,0.000114287
1375,0.000152412,0.000190634,0.000114191
1380,0.000152368,0.000190641,0.000114095
1385,0.000152325,0.000190651,0.000113999
1390,0.000152283,0.000190663,0.000113902
1395,0.000152241,0.000190677,0.000113805
1400,0.000152201,0.000190694,0.000113708
1405,0.000152161,0.000190712,0.000113611
1410,0.000152123,0.000190732,0.000113513
1415,0.000152085,0.000190755,0.000113416
1420,0.000152048,0.000190779,0.000113318
1425,0.000152012,0.000190806,0.000113219
1430,0.000151977,0.000190834,0.000113121
1435,0.000151943,0.000190864,0.000113022
1440,0.00015191,0.000190897,0.000112922
1445,0.000151877,0.000190931,0.000112823
1450,0.000151845,0.000190967,0.000112723
1455,0.000151814,0.000191005,0.000112623
1460,0.000151783,0.000191044,0.000112522
1465,0.000151754,0.000191085,0.000112422
1470,0.000151724,0.000191128,0.00011232
1475,0.000151696,0.000191173,0.000112219
1480,0.000151668,0.00019122,0.000112117
1485,0.000151641,0.000191268,0.000112015
1490,0.000151615,0.000191318,0.000111913
1495,0.000151589,0.000191369,0.00011181
1500,0.000151564,0.000191422,0.000111706
1505,0.00015154,0.000191476,0.000111603
1510,0.000151516,0.000191532,0.000111499
1515,0.000151492,0.00019159,0.000111395
1520,0.00015147,0.000191649,0.00011129
1525,0.000151447,0.000191709,0.000111185
1530,0.000151425,0.000191771,0.000111079
1535,0.000151404,0.000191834,0.000110974
1540,0.000151383,0.000191899,0.000110868
1545,0.000151363,0.000191965,0.000110761
1550,0.000151343,0.000192032,0.000110654
1555,0.000151324,0.000192101,0.000110547
1560,0.000151305,0.000192171,0.000110439
1565,0.000151286,0.000192242,0.000110331
1570,0.000151268,0.000192314,0.000110222
1575,0.000151251,0.000192388,0.000110113
1580,0.000151233,0.000192463,0.000110004
1585,0.000151216,0.000192538,0.000109894
1590,0.0001512,0.000192615,0.000109784
1595,0.000151184,0.000192693,0.000109674
1600,0.000151168,0.000192773,0.000109563
1605,0.000151152,0.000192853,0.000109452
1610,0.000151137,0.000192934,0.00010934
1615,0.000151122,0.000193016,0.000109228
1620,0.000151108,0.000193099,0.000109116
1625,0.000151093,0.000193183,0.000109003
1630,0.000151079,0.000193268,0.00010889
1635,0.000151065,0.000193354,0.000108776
1640,0.000151052,0.000193441,0.000108662
1645,0.000151039,0.000193529,0.000108548
1650,0.000151025,0.000193617,0.000108433
1655,0.000151012,0.000193707,0.000108318
1660,0.000151,0.000193797,0.000108203
1665,0.000150987,0.000193888,0.000108087
1670,0.000150975,0.000193979,0.000107971
1675,0.000150963,0.000194071,0.000107854
1680,0.000150951,0.000194164,0.000107737
1685,0.000150939,0.000194258,0.00010762
1690,0.000150927,0.000194353,0.000107502
1695,0.000150916,0.000194448,0.000107384
1700,0.000150905,0.000194543,0.000107266
1705,0.000150893,0.000194639,0.000107147
1710,0.000150882,0.000194736,0.000107028
1715,0.000150871,0.000194833,0.000106909
1720,0.00015086,0.000194931,0.000106789
1725,0.000150849,0.00019503,0.000106669
1730,0.000150838,0.000195128,0.000106548
1735,0.000150827,0.000195228,0.000106427
1740,0.000150817,0.000195327,0.000106306
1745,0.000150806,0.000195427,0.000106184
1750,0.000150795,0.000195528,0.000106063
1755,0.000150785,0.000195629,0.000105941
1760,0.000150774,0.00019573,0.000105818
1765,0.000150764,0.000195832,0.000105695
1770,0.000150753,0.000195934,0.000105572
1775,0.000150742,0.000196036,0.000105449
1780,0.000150732,0.000196139,0.000105325
1785,0.000150721,0.000196241,0.000105201
1790,0.000150711,0.000196345,0.000105077
1795,0.0001507,0.000196448,0.000104952
1800,0.000150689,0.000196551,0.000104827
1805,0.000150678,0.000196655,0.000104702
1810,0.000150668,0.000196759,0.000104576
1815,0.000150657,0.000196863,0.000104451
1820,0.000150646,0.000196967,0.000104324
1825,0.000150635,0.000197072,0.000104198
1830,0.000150624,0.000197176,0.000104071
1835,0.000150613,0.000197281,0.000103945
1840,0.000150601,0.000197385,0.000103817
1845,0.00015059,0.00019749,0.00010369
1850,0.000150579,0.000197595,0.000103562
1855,0.000150567,0.0001977,0.000103435
1860,0.000150555,0.000197804,0.000103306
1865,0.000150544,0.000197909,0.000103178
1870,0.000150532,0.000198014,0.000103049
1875,0.00015052,0.000198119,0.000102921
1880,0.000150508,0.000198224,0.000102792
1885,0.000150495,0.000198328,0.000102662
1890,0.000150483,0.000198433,0.000102533
1895,0.00015047,0.000198537,0.000102403
1900,0.000150457,0.000198642,0.000102273
1905,0.000150444,0.000198746,0.000102143
1910,0.000150431,0.00019885,0.000102013
1915,0.000150418,0.000198954,0.000101882
1920,0.000150405,0.000199058,0.000101751
1925,0.000150391,0.000199162,0.00010162
1930,0.000150377,0.000199265,0.000101489
1935,0.000150363,0.000199368,0.000101358
1940,0.000150349,0.000199471,0.000101226
1945,0.000150334,0.000199574,0.000101095
1950,0.00015032,0.000199677,0.000100963
1955,0.000150305,0.000199779,0.000100831
1960,0.00015029,0.000199881,0.000100699
1965,0.000150275,0.000199983,0.000100567
1970,0.000150259,0.000200085,0.000100434
1975,0.000150244,0.000200186,0.000100301
1980,0.000150228,0.000200287,0.000100169
1985,0.000150212,0.000200387,0.000100036
1990,0.000150195,0.000200488,9.99028e-05
1995,0.000150179,0.000200588,9.97696e-05
2000,0.000150162,0.000200687,9.96362e-05
2005,0.000150145,0.000200787,9.95028e-05
2010,0.000150127,0.000200885,9.93692e-05
2015,0.00015011,0.000200984,9.92356e-05
2020,0.000150092,0.000201082,9.91017e-05
2025,0.000150074,0.00020118,9.89679e-05
2030,0.000150056,0.000201277,9.88339e-05
2035,0.000150037,0.000201374,9.86997e-05
2040,0.000150018,0.000201471,9.85655e-05
2045,0.000149999,0.000201567,9.84312e-05
2050,0.000149979,0.000201662,9.82968e-05
2055,0.00014996,0.000201757,9.81623e-05
2060,0.00014994,0.000201852,9.80277e-05
2065,0.00014992,0.000201946,9.7893e-05
2070,0.000149899,0.00020204,9.77583e-05
2075,0.000149878,0.000202133,9.76235e-05
2080,0.000149857,0.000202226,9.74886e-05
2085,0.000149836,0.000202318,9.73536e-05
2090,0.000149814,0.00020241,9.72186e-05
2095,0.000149792,0.000202501,9.70835e-05
2100,0.00014977,0.000202592,9.69484e-05
2105,0.000149747,0.000202682,9.68131e-05
2110,0.000149725,0.000202771,9.66779e-05
2115,0.000149702,0.00020286,9.65426e-05
2120,0.000149678,0.000202949,9.64073e-05
2125,0.000149654,0.000203037,9.62719e-05
2130,0.00014963,0.000203124,9.61364e-05
2135,0.000149606,0.000203211,9.6001e-05
2140,0.000149581,0.000203297,9.58655e-05
2145,0.000149556,0.000203383,9.573e-05
2150,0.000149531,0.000203468,9.55944e-05
2155,0.000149506,0.000203552,9.54589e-05
2160,0.00014948,0.000203636,9.53233e-05
2165,0.000149453,0.000203719,9.51877e-05
2170,0.000149427,0.000203802,9.5052e-05
2175,0.0001494,0.000203884,9.49165e-05
2180,0.000149373,0.000203965,9.47808e-05
2185,0.000149345,0.000204046,9.46452e-05
2190,0.000149318,0.000204126,9.45095e-05
2195,0.00014929,0.000204205,9.43739e-05
2200,0.000149261,0.000204284,9.42382e-05
2205,0.000149232,0.000204362,9.41026e-05
2210,0.000149203,0.00020444,9.39671e-05
2215,0.000149174,0.000204516,9.38314e-05
2220,0.000149144,0.000204592,9.36958e-05
2225,0.000149114,0.000204668,9.35602e-05
2230,0.000149084,0.000204743,9.34247e-05
2235,0.000149053,0.000204817,9.32891e-05
2240,0.000149022,0.00020489,9.31536e-05
2245,0.000148991,0.000204963,9.30182e-05
2250,0.000148959,0.000205035,9.28827e-05
2255,0.000148927,0.000205106,9.27473e-05
2260,0.000148894,0.000205177,9.26119e-05
2265,0.000148862,0.000205247,9.24765e-05
2270,0.000148829,0.000205316,9.23413e-05
2275,0.000148795,0.000205385,9.2206e-05
2280,0.000148762,0.000205453,9.20708e-05
2285,0.000148728,0.00020552,9.19357e-05
2290,0.000148693,0.000205586,9.18006e-05
2295,0.000148659,0.000205652,9.16655e-05
2300,0.000148624,0.000205717,9.15304e-05
2305,0.000148588,0.000205781,9.13955e-05
2310,0.000148553,0.000205845,9.12607e-05
2315,0.000148517,0.000205907,9.11258e-05
2320,0.00014848,0.000205969,9.09911e-05
2325,0.000148443,0.000206031,9.08563e-05
2330,0.000148406,0.000206091,9.07217e-05
2335,0.000148369,0.000206151,9.05871e-05
2340,0.000148331,0.00020621,9.04527e-05
2345,0.000148293,0.000206269,9.03182e-05
2350,0.000148255,0.000206326,9.01839e-05
2355,0.000148216,0.000206383,9.00496e-05
2360,0.000148177,0.000206439,8.99155e-05
2365,0.000148138,0.000206494,8.97813e-05
2370,0.000148098,0.000206549,8.96474e-05
2375,0.000148058,0.000206603,8.95134e-05
2380,0.000148018,0.000206656,8.93796e-05
2385,0.000147977,0.000206708,8.92458e-05
2390,0.000147936,0.00020676,8.91122e-05
2395,0.000147895,0.000206811,8.89786e-05
2400,0.000147853,0.000206861,8.88451e-05
2405,0.000147811,0.00020691,8.87117e-05
2410,0.000147769,0.000206959,8.85785e-05
2415,0.000147726,0.000207007,8.84452e-05
2420,0.000147683,0.000207054,8.83121e-05
2425,0.00014764,0.0002071,8.81792e-05
2430,0.000147596,0.000207146,8.80463e-05
2435,0.000147552,0.00020719,8.79135e-05
2440,0.000147508,0.000207234,8.77809e-05
2445,0.000147463,0.000207278,8.76483e-05
2450,0.000147418,0.00020732,8.75159e-05
2455,0.000147373,0.000207362,8.73836e-05
2460,0.000147327,0.000207403,8.72514e-05
2465,0.000147281,0.000207443,8.71193e-05
2470,0.000147235,0.000207482,8.69873e-05
2475,0.000147188,0.000207521,8.68554e-05
2480,0.000147141,0.000207559,8.67237e-05
2485,0.000147094,0.000207596,8.65921e-05
2490,0.000147046,0.000207632,8.64606e-05
2495,0.000146998,0.000207668,8.63292e-05
2500,0.00014695,0.000207702,8.6198e-05
2505,0.000146902,0.000207737,8.60669e-05
2510,0.000146853,0.00020777,8.59358e-05
2515,0.000146804,0.000207802,8.5805e-05
2520,0.000146754,0.000207834,8.56743e-05
2525,0.000146704,0.000207865,8.55436e-05
2530,0.000146654,0.000207895,8.54132e-05
2535,0.000146604,0.000207925,8.52829e-05
2540,0.000146553,0.000207953,8.51527e-05
2545,0.000146502,0.000207981,8.50226e-05
2550,0.00014645,0.000208008,8.48927e-05
2555,0.000146399,0.000208035,8.47629e-05
2560,0.000146347,0.00020806,8.46333e-05
2565,0.000146294,0.000208085,8.45038e-05
2570,0.000146242,0.000208109,8.43744e-05
2575,0.000146189,0.000208133,8.42452e-05
2580,0.000146136,0.000208155,8.41161e-05
2585,0.000146082,0.000208177,8.39872e-05
2590,0.000146028,0.000208198,8.38584e-05
2595,0.000145974,0.000208218,8.37297e-05
2600,0.00014592,0.000208238,8.36013e-05
2605,0.000145865,0.000208257,8.3473e-05
2610,0.00014581,0.000208275,8.33448e-05
2615,0.000145754,0.000208292,8.32167e-05
2620,0.000145699,0.000208309,8.30889e-05
2625,0.000145643,0.000208325,8.29611e-05
2630,0.000145587,0.00020834,8.28335e-05
2635,0.00014553,0.000208354,8.27061e-05
2640,0.000145473,0.000208368,8.25789e-05
2645,0.000145416,0.00020838,8.24518e-05
2650,0.000145359,0.000208392,8.23248e-05
2655,0.000145301,0.000208404,8.21981e-05
2660,0.000145243,0.000208414,8.20714e-05
2665,0.000145185,0.000208424,8.19449e-05
2670,0.000145126,0.000208433,8.18186e-05
2675,0.000145067,0.000208442,8.16925e-05
2680,0.000145008,0.00020845,8.15665e-05
2685,0.000144949,0.000208457,8.14407e-05
2690,0.000144889,0.000208463,8.1315e-05
2695,0.000144829,0.000208468,8.11895e-05
2700,0.000144769,0.000208473,8.10642e-05
2705,0.000144708,0.000208477,8.09391e-05
2710,0.000144647,0.00020848,8.0814e-05
2715,0.000144586,0.000208483,8.06892e-05
2720,0.000144525,0.000208485,8.05645e-05
2725,0.000144463,0.000208486,8.044e-05
2730,0.000144401,0.000208486,8.03157e-05
2735,0.000144339,0.000208486,8.01915e-05
2740,0.000144276,0.000208485,8.00676e-05
2745,0.000144214,0.000208483,7.99437e-05
2750,0.000144151,0.000208481,7.98201e-05
2755,0.000144087,0.000208478,7.96966e-05
2760,0.000144024,0.000208474,7.95733e-05
2765,0.00014396,0.00020847,7.94502e-05
2770,0.000143896,0.000208464,7.93272e-05
2775,0.000143831,0.000208458,7.92045e-05
2780,0.000143767,0.000208452,7.90819e-05
2785,0.000143702,0.000208444,7.89594e-05
2790,0.000143637,0.000208436,7.88371e-05
2795,0.000143571,0.000208428,7.8715e-05
2800,0.000143506,0.000208418,7.85932e-05
2805,0.00014344,0.000208408,7.84714e-05
2810,0.000143374,0.000208398,7.83499e-05
2815,0.000143307,0.000208386,7.82285e-05
2820,0.000143241,0.000208374,7.81073e-05
2825,0.000143174,0.000208361,7.79863e-05
2830,0.000143107,0.000208348,7.78655e-05
2835,0.000143039,0.000208334,7.77449e-05
2840,0.000142972,0.000208319,7.76244e-05
2845,0.000142904,0.000208303,7.75041e-05
2850,0.000142836,0.000208287,7.7384e-05
2855,0.000142767,0.00020827,7.7264e-05
2860,0.000142699,0.000208253,7.71443e-05
2865,0.00014263,0.000208235,7.70247e-05
2870,0.000142561,0.000208216,7.69054e-05
2875,0.000142491,0.000208197,7.67862e-05
2880,0.000142422,0.000208177,7.66671e-05
2885,0.000142352,0.000208156,7.65483e-05
2890,0.000142282,0.000208134,7.64296e-05
2895,0.000142212,0.000208112,7.63112e-05
2900,0.000142141,0.00020809,7.61929e-05
2905,0.000142071,0.000208066,7.60748e-05
2910,0.000142,0.000208042,7.59568e-05
2915,0.000141929,0.000208018,7.58391e-05
2920,0.000141857,0.000207993,7.57216e-05
2925,0.000141785,0.000207967,7.56042e-05
2930,0.000141714,0.00020794,7.5487e-05
2935,0.000141642,0.000207913,7.537e-05
2940,0.000141569,0.000207885,7.52533e-05
2945,0.000141497,0.000207857,7.51366e-05
2950,0.000141424,0.000207828,7.50202e-05
2955,0.000141351,0.000207799,7.49039e-05
2960,0.000141278,0.000207768,7.47879e-05
2965,0.000141205,0.000207737,7.4672e-05
2970,0.000141131,0.000207706,7.45563e-05
2975,0.000141057,0.000207674,7.44408e-05
2980,0.000140983,0.000207641,7.43255e-05
2985,0.000140909,0.000207608,7.42104e-05
2990,0.000140835,0.000207574,7.40954e-05
2995,0.00014076,0.00020754,7.39807e-05
3000,0.000140685,0.000207505,7.38661e-05
3005,0.00014061,0.000207469,7.37518e-05
3010,0.000140535,0.000207433,7.36376e-05
3015,0.00014046,0.000207396,7.35236e-05
3020,0.000140384,0.000207359,7.34098e-05
3025,0.000140308,0.000207321,7.32961e-05
3030,0.000140232,0.000207282,7.31827e-05
3035,0.000140156,0.000207243,7.30695e-05
3040,0.00014008,0.000207203,7.29564e-05
3045,0.000140003,0.000207163,7.28436e-05
3050,0.000139927,0.000207122,7.27308e-05
3055,0.00013985,0.000207081,7.26184e-05
3060,0.000139772,0.000207039,7.25061e-05
3065,0.000139695,0.000206996,7.2394e-05
3070,0.000139618,0.000206953,7.22821e-05
3075,0.00013954,0.000206909,7.21703e-05
3080,0.000139462,0.000206865,7.20587e-05
3085,0.000139384,0.00020682,7.19474e-05
3090,0.000139306,0.000206775,7.18362e-05
3095,0.000139227,0.000206729,7.17253e-05
3100,0.000139149,0.000206683,7.16145e-05
3105,0.00013907,0.000206636,7.15039e-05
3110,0.000138991,0.000206588,7.13935e-05
3115,0.000138912,0.00020654,7.12833e-05
3120,0.000138833,0.000206492,7.11732e-05
3125,0.000138753,0.000206443,7.10634e-05
3130,0.000138673,0.000206393,7.09538e-05
3135,0.000138594,0.000206343,7.08443e-05
3140,0.000138514,0.000206292,7.0735e-05
3145,0.000138433,0.000206241,7.06259e-05
3150,0.000138353,0.000206189,7.05171e-05
3155,0.000138273,0.000206137,7.04084e-05
3160,0.000138192,0.000206084,7.02998e-05
3165,0.000138111,0.000206031,7.01915e-05
3170,0.00013803,0.000205977,7.00834e-05
3175,0.000137949,0.000205923,6.99754e-05
3180,0.000137868,0.000205868,6.98677e-05
3185,0.000137786,0.000205813,6.97601e-05
3190,0.000137705,0.000205757,6.96527e-05
3195,0.000137623,0.000205701,6.95455e-05
3200,0.000137541,0.000205644,6.94385e-05
3205,0.000137459,0.000205587,6.93317e-05
3210,0.000137377,0.000205529,6.92251e-05
3215,0.000137295,0.000205471,6.91187e-05
3220,0.000137212,0.000205412,6.90124e-05
3225,0.00013713,0.000205353,6.89064e-05
3230,0.000137047,0.000205293,6.88005e-05
3235,0.000136964,0.000205233,6.86948e-05
3240,0.000136881,0.000205172,6.85893e-05
3245,0.000136798,0.000205111,6.8484e-05
3250,0.000136714,0.00020505,6.83789e-05
3255,0.000136631,0.000204988,6.8274e-05
3260,0.000136547,0.000204925,6.81692e-05
3265,0.000136463,0.000204862,6.80647e-05
3270,0.000136379,0.000204799,6.79603e-05
3275,0.000136295,0.000204735,6.78561e-05
3280,0.000136211,0.00020467,6.77521e-05
3285,0.000136127,0.000204605,6.76483e-05
3290,0.000136043,0.00020454,6.75447e-05
3295,0.000135958,0.000204474,6.74413e-05
3300,0.000135873,0.000204408,6.7338e-05
3305,0.000135788,0.000204342,6.7235e-05
3310,0.000135703,0.000204275,6.71321e-05
3315,0.000135618,0.000204207,6.70294e-05
3320,0.000135533,0.000204139,6.69269e-05
3325,0.000135448,0.000204071,6.68246e-05
3330,0.000135362,0.000204002,6.67224e-05
3335,0.000135277,0.000203933,6.66205e-05
3340,0.000135191,0.000203863,6.65187e-05
3345,0.000135105,0.000203793,6.64172e-05
3350,0.000135019,0.000203723,6.63158e-05
3355,0.000134933,0.000203652,6.62146e-05
3360,0.000134847,0.000203581,6.61135e-05
3365,0.000134761,0.000203509,6.60127e-05
3370,0.000134674,0.000203437,6.59121e-05
3375,0.000134588,0.000203364,6.58116e-05
3380,0.000134501,0.000203291,6.57113e-05
3385,0.000134415,0.000203218,6.56113e-05
3390,0.000134328,0.000203144,6.55114e-05
3395,0.000134241,0.00020307,6.54116e-05
3400,0.000134154,0.000202995,6.53121e-05
3405,0.000134067,0.00020292,6.52127e-05
3410,0.000133979,0.000202845,6.51135e-05
3415,0.000133892,0.000202769,6.50145e-05
3420,0.000133804,0.000202693,6.49157e-05
3425,0.000133717,0.000202617,6.48171e-05
3430,0.000133629,0.00020254,6.47186e-05
3435,0.000133541,0.000202463,6.46204e-05
3440,0.000133454,0.000202385,6.45223e-05
3445,0.000133366,0.000202307,6.44244e-05
3450,0.000133278,0.000202228,6.43266e-05
3455,0.000133189,0.00020215,6.42291e-05
3460,0.000133101,0.00020207,6.41318e-05
3465,0.000133013,0.000201991,6.40346e-05
3470,0.000132924,0.000201911,6.39376e-05
3475,0.000132836,0.000201831,6.38408e-05
3480,0.000132747,0.00020175,6.37442e-05
3485,0.000132658,0.000201669,6.36477e-05
3490,0.00013257,0.000201588,6.35514e-05
3495,0.000132481,0.000201506,6.34553e-05
3500,0.000132392,0.000201424,6.33594e-05
3505,0.000132303,0.000201342,6.32637e-05
3510,0.000132213,0.000201259,6.31681e-05
3515,0.000132124,0.000201176,6.30727e-05
3520,0.000132035,0.000201092,6.29775e-05
3525,0.000131946,0.000201009,6.28825e-05
3530,0.000131856,0.000200925,6.27876e-05
3535,0.000131767,0.00020084,6.2693e-05
3540,0.000131677,0.000200755,6.25985e-05
3545,0.000131587,0.00020067,6.25041e-05
3550,0.000131497,0.000200585,6.241e-05
3555,0.000131407,0.000200499,6.2316e-05
3560,0.000131318,0.000200413,6.22223e-05
3565,0.000131227,0.000200326,6.21286e-05
3570,0.000131137,0.00020024,6.20352e-05
3575,0.000131047,0.000200153,6.1942e-05
3580,0.000130957,0.000200065,6.18488e-05
3585,0.000130867,0.000199977,6.1756e-05
3590,0.000130776,0.000199889,6.16632e-05
3595,0.000130686,0.000199801,6.15707e-05
3600,0.000130595,0.000199712,6.14783e-05
3605,0.000130505,0.000199623,6.13861e-05
3610,0.000130414,0.000199534,6.1294e-05
3615,0.000130323,0.000199445,6.12022e-05
3620,0.000130233,0.000199355,6.11105e-05
3625,0.000130142,0.000199265,6.1019e-05
3630,0.000130051,0.000199174,6.09276e-05
3635,0.00012996,0.000199083,6.08365e-05
3640,0.000129869,0.000198992,6.07455e-05
3645,0.000129778,0.000198901,6.06547e-05
3650,0.000129687,0.000198809,6.0564e-05
3655,0.000129595,0.000198717,6.04735e-05
3660,0.000129504,0.000198625,6.03832e-05
3665,0.000129413,0.000198532,6.02931e-05
3670,0.000129321,0.00019844,6.02031e-05
3675,0.00012923,0.000198347,6.01133e-05
3680,0.000129138,0.000198253,6.00237e-05
3685,0.000129047,0.00019816,5.99342e-05
3690,0.000128955,0.000198066,5.98449e-05
3695,0.000128864,0.000197972,5.97558e-05
3700,0.000128772,0.000197877,5.96669e-05
3705,0.00012868,0.000197782,5.95781e-05
3710,0.000128588,0.000197687,5.94895e-05
3715,0.000128497,0.000197592,5.94011e-05
3720,0.000128405,0.000197497,5.93128e-05
3725,0.000128313,0.000197401,5.92247e-05
3730,0.000128221,0.000197305,5.91367e-05
3735,0.000128129,0.000197209,5.9049e-05
3740,0.000128037,0.000197112,5.89614e-05
3745,0.000127945,0.000197015,5.88739e-05
3750,0.000127852,0.000196918,5.87867e-05
3755,0.00012776,0.000196821,5.86995e-05
3760,0.000127668,0.000196723,5.86126e-05
3765,0.000127576,0.000196625,5.85259e-05
3770,0.000127483,0.000196527,5.84392e-05
3775,0.000127391,0.000196429,5.83528e-05
3780,0.000127299,0.000196331,5.82665e-05
3785,0.000127206,0.000196232,5.81804e-05
3790,0.000127114,0.000196133,5.80945e-05
3795,0.000127021,0.000196033,5.80087e-05
3800,0.000126929,0.000195934,5.79231e-05
3805,0.000126836,0.000195834,5.78376e-05
3810,0.000126743,0.000195734,5.77523e-05
3815,0.000126651,0.000195634,5.76672e-05
3820,0.000126558,0.000195534,5.75822e-05
3825,0.000126465,0.000195433,5.74974e-05
3830,0.000126372,0.000195332,5.74127e-05
3835,0.00012628,0.000195231,5.73283e-05
3840,0.000126187,0.00019513,5.7244e-05
3845,0.000126094,0.000195028,5.71598e-05
3850,0.000126001,0.000194927,5.70758e-05
3855,0.000125908,0.000194825,5.6992e-05
3860,0.000125815,0.000194723,5.69083e-05
3865,0.000125723,0.00019462,5.68248e-05
3870,0.00012563,0.000194518,5.67414e-05
3875,0.000125537,0.000194415,5.66582e-05
3880,0.000125444,0.000194312,5.65752e-05
3885,0.00012535,0.000194209,5.64923e-05
3890,0.000125257,0.000194105,5.64096e-05
3895,0.000125164,0.000194002,5.6327e-05
3900,0.000125071,0.000193898,5.62446e-05
3905,0.000124978,0.000193794,5.61624e-05
3910,0.000124885,0.00019369,5.60803e-05
3915,0.000124792,0.000193585,5.59984e-05
3920,0.000124699,0.000193481,5.59166e-05
3925,0.000124605,0.000193376,5.5835e-05
3930,0.000124512,0.000193271,5.57535e-05
3935,0.000124419,0.000193166,5.56722e-05
3940,0.000124326,0.00019306,5.55911e-05
3945,0.000124233,0.000192955,5.55101e-05
3950,0.000124139,0.000192849,5.54293e-05
3955,0.000124046,0.000192743,5.53485e-05
3960,0.000123953,0.000192637,5.5268e-05
3965,0.000123859,0.000192531,5.51876e-05
3970,0.000123766,0.000192424,5.51074e-05
3975,0.000123673,0.000192318,5.50274e-05
3980,0.000123579,0.000192211,5.49474e-05
3985,0.000123486,0.000192104,5.48677e-05
3990,0.000123392,0.000191997,5.47881e-05
3995,0.000123299,0.00019189,5.47086e-05
4000,0.000123206,0.000191782,5.46293e-05
4005,0.000123112,0.000191674,5.45502e-05
4010,0.000123019,0.000191567,5.44712e-05
4015,0.000122925,0.000191459,5.43923e-05
4020,0.000122832,0.00019135,5.43137e-05
4025,0.000122739,0.000191242,5.42351e-05
4030,0.000122645,0.000191134,5.41567e-05
4035,0.000122552,0.000191025,5.40785e-05
4040,0.000122458,0.000190916,5.40004e-05
4045,0.000122365,0.000190807,5.39224e-05
4050,0.000122271,0.000190698,5.38446e-05
4055,0.000122178,0.000190589,5.3767e-05
4060,0.000122084,0.000190479,5.36895e-05
4065,0.000121991,0.00019037,5.36122e-05
4070,0.000121898,0.00019026,5.35349e-05
4075,0.000121804,0.00019015,5.34579e-05
4080,0.000121711,0.00019004,5.3381e-05
4085,0.000121617,0.00018993,5.33043e-05
4090,0.000121524,0.00018982,5.32276e-05
4095,0.00012143,0.00018971,5.31512e-05
4100,0.000121337,0.000189599,5.30748e-05
4105,0.000121243,0.000189488,5.29987e-05
4110,0.00012115,0.000189377,5.29226e-05
4115,0.000121057,0.000189266,5.28468e-05
4120,0.000120963,0.000189155,5.2771e-05
4125,0.00012087,0.000189044,5.26954e-05
4130,0.000120776,0.000188933,5.262e-05
4135,0.000120683,0.000188821,5.25447e-05
4140,0.00012059,0.000188709,5.24696e-05
4145,0.000120496,0.000188598,5.23946e-05
4150,0.000120403,0.000188486,5.23197e-05
4155,0.000120309,0.000188374,5.2245e-05
4160,0.000120216,0.000188262,5.21704e-05
4165,0.000120123,0.000188149,5.2096e-05
4170,0.000120029,0.000188037,5.20216e-05
4175,0.000119936,0.000187924,5.19475e-05
4180,0.000119843,0.000187812,5.18735e-05
4185,0.000119749,0.000187699,5.17996e-05
4190,0.000119656,0.000187586,5.17259e-05
4195,0.000119563,0.000187473,5.16523e-05
4200,0.000119469,0.00018736,5.15789e-05
4205,0.000119376,0.000187247,5.15056e-05
4210,0.000119283,0.000187133,5.14324e-05
4215,0.00011919,0.00018702,5.13594e-05
4220,0.000119096,0.000186906,5.12865e-05
4225,0.000119003,0.000186793,5.12137e-05
4230,0.00011891,0.000186679,5.11411e-05
4235,0.000118817,0.000186565,5.10687e-05
4240,0.000118724,0.000186451,5.09963e-05
4245,0.00011863,0.000186337,5.09241e-05
4250,0.000118537,0.000186223,5.08521e-05
4255,0.000118444,0.000186108,5.07802e-05
4260,0.000118351,0.000185994,5.07084e-05
4265,0.000118258,0.000185879,5.06368e-05
4270,0.000118165,0.000185765,5.05653e-05
4275,0.000118072,0.00018565,5.04939e-05
4280,0.000117979,0.000185535,5.04227e-05
4285,0.000117886,0.00018542,5.03516e-05
4290,0.000117793,0.000185305,5.02806e-05
4295,0.0001177,0.00018519,5.02098e-05
4300,0.000117607,0.000185075,5.01391e-05
4305,0.000117514,0.00018496,5.00685e-05
4310,0.000117421,0.000184844,4.99981e-05
4315,0.000117328,0.000184729,4.99279e-05
4320,0.000117235,0.000184613,4.98577e-05
4325,0.000117143,0.000184498,4.97877e-05
4330,0.00011705,0.000184382,4.97178e-05
4335,0.000116957,0.000184266,4.96481e-05
4340,0.000116864,0.00018415,4.95784e-05
4345,0.000116772,0.000184034,4.9509e-05
4350,0.000116679,0.000183918,4.94396e-05
4355,0.000116586,0.000183802,4.93704e-05
4360,0.000116494,0.000183686,4.93013e-05
4365,0.000116401,0.00018357,4.92323e-05
4370,0.000116308,0.000183453,4.91635e-05
4375,0.000116216,0.000183337,4.90948e-05
4380,0.000116123,0.00018322,4.90263e-05
4385,0.000116031,0.000183104,4.89578e-05
4390,0.000115938,0.000182987,4.88895e-05
4395,0.000115846,0.00018287,4.88214e-05
4400,0.000115753,0.000182754,4.87533e-05
4405,0.000115661,0.000182637,4.86854e-05
4410,0.000115569,0.00018252,4.86176e-05
4415,0.000115476,0.000182403,4.855e-05
4420,0.000115384,0.000182286,4.84825e-05
4425,0.000115292,0.000182169,4.8415e-05
4430,0.0001152,0.000182051,4.83478e-05
4435,0.000115107,0.000181934,4.82806e-05
4440,0.000115015,0.000181817,4.82136e-05
4445,0.000114923,0.000181699,4.81467e-05
4450,0.000114831,0.000181582,4.808e-05
4455,0.000114739,0.000181464,4.80133e-05
4460,0.000114647,0.000181347,4.79468e-05
4465,0.000114555,0.000181229,4.78804e-05
4470,0.000114463,0.000181112,4.78142e-05
4475,0.000114371,0.000180994,4.77481e-05
4480,0.000114279,0.000180876,4.76821e-05
4485,0.000114187,0.000180758,4.76162e-05
4490,0.000114095,0.00018064,4.75504e-05
4495,0.000114004,0.000180522,4.74848e-05
4500,0.000113912,0.000180404,4.74193e-05
4505,0.00011382,0.000180286,4.73539e-05
4510,0.000113728,0.000180168,4.72887e-05
4515,0.000113637,0.00018005,4.72235e-05
4520,0.000113545,0.000179932,4.71585e-05
4525,0.000113454,0.000179813,4.70936e-05
4530,0.000113362,0.000179695,4.70289e-05
4535,0.00011327,0.000179577,4.69642e-05
4540,0.000113179,0.000179458,4.68997e-05
4545,0.000113088,0.00017934,4.68353e-05
4550,0.000112996,0.000179221,4.6771e-05
4555,0.000112905,0.000179103,4.67069e-05
4560,0.000112814,0.000178984,4.66428e-05
4565,0.000112722,0.000178866,4.65789e-05
4570,0.000112631,0.000178747,4.65152e-05
4575,0.00011254,0.000178628,4.64515e-05
4580,0.000112449,0.00017851,4.63879e-05
4585,0.000112358,0.000178391,4.63245e-05
4590,0.000112267,0.000178272,4.62612e-05
4595,0.000112176,0.000178153,4.6198e-05
4600,0.000112085,0.000178034,4.61349e-05
4605,0.000111994,0.000177915,4.6072e-05
4610,0.000111903,0.000177797,4.60091e-05
4615,0.000111812,0.000177678,4.59464e-05
4620,0.000111721,0.000177559,4.58838e-05
4625,0.00011163,0.00017744,4.58213e-05
4630,0.00011154,0.00017732,4.5759e-05
4635,0.000111449,0.000177201,4.56967e-05
4640,0.000111358,0.000177082,4.56346e-05
4645,0.000111268,0.000176963,4.55726e-05
4650,0.000111177,0.000176844,4.55107e-05
4655,0.000111087,0.000176725,4.54489e-05
4660,0.000110996,0.000176606,4.53872e-05
4665,0.000110906,0.000176486,4.53257e-05
4670,0.000110816,0.000176367,4.52642e-05
4675,0.000110725,0.000176248,4.52029e-05
4680,0.000110635,0.000176128,4.51417e-05
4685,0.000110545,0.000176009,4.50807e-05
4690,0.000110455,0.00017589,4.50197e-05
4695,0.000110365,0.00017577,4.49588e-05
4700,0.000110275,0.000175651,4.48981e-05
4705,0.000110184,0.000175531,4.48374e-05
4710,0.000110094,0.000175412,4.47769e-05
4715,0.000110005,0.000175293,4.47165e-05
4720,0.000109915,0.000175173,4.46562e-05
4725,0.000109825,0.000175054,4.4596e-05
4730,0.000109735,0.000174934,4.4536e-05
4735,0.000109645,0.000174815,4.4476e-05
4740,0.000109556,0.000174695,4.44162e-05
4745,0.000109466,0.000174575,4.43565e-05
4750,0.000109376,0.000174456,4.42969e-05
4755,0.000109287,0.000174336,4.42373e-05
4760,0.000109197,0.000174217,4.41779e-05
4765,0.000109108,0.000174097,4.41187e-05
4770,0.000109019,0.000173978,4.40595e-05
4775,0.000108929,0.000173858,4.40004e-05
4780,0.00010884,0.000173738,4.39415e-05
4785,0.000108751,0.000173619,4.38827e-05
4790,0.000108661,0.000173499,4.38239e-05
4795,0.000108572,0.000173379,4.37653e-05
4800,0.000108483,0.00017326,4.37068e-05
4805,0.000108394,0.00017314,4.36484e-05
4810,0.000108305,0.00017302,4.35901e-05
4815,0.000108216,0.000172901,4.35319e-05
4820,0.000108127,0.000172781,4.34738e-05
4825,0.000108039,0.000172661,4.34158e-05
4830,0.00010795,0.000172542,4.3358e-05
4835,0.000107861,0.000172422,4.33002e-05
4840,0.000107772,0.000172302,4.32425e-05
4845,0.000107684,0.000172183,4.3185e-05
4850,0.000107595,0.000172063,4.31276e-05
4855,0.000107507,0.000171943,4.30702e-05
4860,0.000107418,0.000171824,4.30131e-05
4865,0.00010733,0.000171704,4.29559e-05
4870,0.000107242,0.000171584,4.28989e-05
4875,0.000107153,0.000171465,4.2842e-05
4880,0.000107065,0.000171345,4.27852e-05
4885,0.000106977,0.000171225,4.27285e-05
4890,0.000106889,0.000171106,4.26719e-05
4895,0.000106801,0.000170986,4.26155e-05
4900,0.000106713,0.000170866,4.25591e-05
4905,0.000106625,0.000170747,4.25028e-05
4910,0.000106537,0.000170627,4.24466e-05
4915,0.000106449,0.000170508,4.23906e-05
4920,0.000106361,0.000170388,4.23346e-05
4925,0.000106274,0.000170269,4.22788e-05
4930,0.000106186,0.000170149,4.2223e-05
4935,0.000106098,0.000170029,4.21673e-05
4940,0.000106011,0.00016991,4.21118e-05
4945,0.000105923,0.00016979,4.20564e-05
4950,0.000105836,0.000169671,4.2001e-05
4955,0.000105748,0.000169551,4.19458e-05
4960,0.000105661,0.000169432,4.18906e-05
4965,0.000105574,0.000169312,4.18356e-05
4970,0.000105487,0.000169193,4.17806e-05
4975,0.000105399,0.000169073,4.17258e-05
4980,0.000105312,0.000168954,4.16711e-05
4985,0.000105225,0.000168834,4.16164e-05
4990,0.000105138,0.000168715,4.15619e-05
4995,0.000105051,0.000168595,4.15075e-05
5000,0.000104965,0.000168476,4.14531e-05
5005,0.000104878,0.000168357,4.13989e-05
5010,0.000104791,0.000168237,4.13448e-05
5015,0.000104704,0.000168118,4.12907e-05
5020,0.000104618,0.000167999,4.12368e-05
5025,0.000104531,0.000167879,4.11829e-05
5030,0.000104445,0.00016776,4.11292e-05
5035,0.000104358,0.000167641,4.10756e-05
5040,0.000104272,0.000167522,4.10221e-05
5045,0.000104185,0.000167402,4.09686e-05
5050,0.000104099,0.000167283,4.09153e-05
5055,0.000104013,0.000167164,4.0862e-05
5060,0.000103927,0.000167045,4.08089e-05
5065,0.000103841,0.000166926,4.07558e-05
5070,0.000103755,0.000166807,4.07028e-05
5075,0.000103669,0.000166687,4.065e-05
5080,0.000103583,0.000166569,4.05972e-05
5085,0.000103497,0.000166449,4.05445e-05
5090,0.000103411,0.00016633,4.0492e-05
5095,0.000103325,0.000166211,4.04395e-05
5100,0.00010324,0.000166093,4.03871e-05
5105,0.000103154,0.000165974,4.03349e-05
5110,0.000103069,0.000165855,4.02827e-05
5115,0.000102983,0.000165736,4.02306e-05
5120,0.000102898,0.000165617,4.01786e-05
5125,0.000102812,0.000165498,4.01267e-05
5130,0.000102727,0.000165379,4.00749e-05
5135,0.000102642,0.000165261,4.00232e-05
5140,0.000102557,0.000165142,3.99715e-05
5145,0.000102472,0.000165023,3.992e-05
5150,0.000102387,0.000164905,3.98686e-05
5155,0.000102302,0.000164786,3.98172e-05
5160,0.000102217,0.000164667,3.9766e-05
5165,0.000102132,0.000164549,3.97148e-05
5170,0.000102047,0.00016443,3.96638e-05
5175,0.000101962,0.000164312,3.96128e-05
5180,0.000101878,0.000164193,3.95619e-05
5185,0.000101793,0.000164075,3.95112e-05
5190,0.000101708,0.000163956,3.94605e-05
5195,0.000101624,0.000163838,3.94099e-05
5200,0.00010154,0.00016372,3.93594e-05
5205,0.000101455,0.000163602,3.9309e-05
5210,0.000101371,0.000163483,3.92586e-05
5215,0.000101287,0.000163365,3.92084e-05
5220,0.000101203,0.000163247,3.91583e-05
5225,0.000101118,0.000163129,3.91082e-05
5230,0.000101034,0.000163011,3.90583e-05
5235,0.00010095,0.000162893,3.90084e-05
5240,0.000100867,0.000162775,3.89586e-05
5245,0.000100783,0.000162656,3.89089e-05
5250,0.000100699,0.000162539,3.88593e-05
5255,0.000100615,0.000162421,3.88098e-05
5260,0.000100532,0.000162303,3.87604e-05
5265,0.000100448,0.000162185,3.87111e-05
5270,0.000100365,0.000162067,3.86618e-05
5275,0.000100281,0.000161949,3.86127e-05
5280,0.000100198,0.000161832,3.85636e-05
5285,0.000100114,0.000161714,3.85146e-05
5290,0.000100031,0.000161596,3.84657e-05
5295,9.99479e-05,0.000161479,3.84169e-05
5300,9.98647e-05,0.000161361,3.83682e-05
5305,9.97817e-05,0.000161244,3.83196e-05
5310,9.96987e-05,0.000161126,3.82711e-05
5315,9.96158e-05,0.000161009,3.82226e-05
5320,9.95329e-05,0.000160892,3.81742e-05
5325,9.94501e-05,0.000160774,3.8126e-05
5330,9.93674e-05,0.000160657,3.80778e-05
5335,9.92847e-05,0.00016054,3.80297e-05
5340,9.92021e-05,0.000160423,3.79817e-05
5345,9.91196e-05,0.000160305,3.79337e-05
5350,9.90371e-05,0.000160188,3.78859e-05
5355,9.89547e-05,0.000160071,3.78381e-05
5360,9.88723e-05,0.000159954,3.77904e-05
5365,9.87901e-05,0.000159837,3.77429e-05
5370,9.87078e-05,0.00015972,3.76953e-05
5375,9.86257e-05,0.000159604,3.76479e-05
5380,9.85436e-05,0.000159487,3.76006e-05
5385,9.84617e-05,0.00015937,3.75534e-05
5390,9.83797e-05,0.000159253,3.75062e-05
5395,9.82978e-05,0.000159137,3.74591e-05
5400,9.8216e-05,0.00015902,3.74121e-05
5405,9.81343e-05,0.000158903,3.73652e-05
5410,9.80526e-05,0.000158787,3.73184e-05
5415,9.7971e-05,0.00015867,3.72716e-05
5420,9.78894e-05,0.000158554,3.7225e-05
5425,9.7808e-05,0.000158438,3.71784e-05
5430,9.77266e-05,0.000158321,3.71319e-05
5435,9.76452e-05,0.000158205,3.70855e-05
5440,9.7564e-05,0.000158089,3.70392e-05
5445,9.74827e-05,0.000157973,3.69929e-05
5450,9.74016e-05,0.000157856,3.69467e-05
5455,9.73205e-05,0.00015774,3.69006e-05
5460,9.72395e-05,0.000157624,3.68546e-05
5465,9.71585e-05,0.000157508,3.68087e-05
5470,9.70777e-05,0.000157393,3.67629e-05
5475,9.69969e-05,0.000157277,3.67171e-05
5480,9.69162e-05,0.000157161,3.66714e-05
5485,9.68355e-05,0.000157045,3.66258e-05
5490,9.67549e-05,0.000156929,3.65803e-05
5495,9.66743e-05,0.000156814,3.65349e-05
5500,9.65939e-05,0.000156698,3.64895e-05
5505,9.65134e-05,0.000156583,3.64443e-05
5510,9.64331e-05,0.000156467,3.63991e-05
5515,9.63529e-05,0.000156352,3.6354e-05
5520,9.62727e-05,0.000156236,3.63089e-05
5525,9.61926e-05,0.000156121,3.6264e-05
5530,9.61125e-05,0.000156006,3.62191e-05
5535,9.60325e-05,0.000155891,3.61743e-05
5540,9.59526e-05,0.000155776,3.61296e-05
5545,9.58727e-05,0.000155661,3.60849e-05
5550,9.57929e-05,0.000155545,3.60404e-05
5555,9.57132e-05,0.00015543,3.59959e-05
5560,9.56336e-05,0.000155316,3.59515e-05
5565,9.5554e-05,0.000155201,3.59072e-05
5570,9.54745e-05,0.000155086,3.58629e-05
5575,9.5395e-05,0.000154971,3.58187e-05
5580,9.53156e-05,0.000154857,3.57747e-05
5585,9.52363e-05,0.000154742,3.57307e-05
5590,9.5157e-05,0.000154627,3.56867e-05
5595,9.50779e-05,0.000154513,3.56429e-05
5600,9.49988e-05,0.000154398,3.55991e-05
5605,9.49198e-05,0.000154284,3.55554e-05
5610,9.48408e-05,0.00015417,3.55117e-05
5615,9.47619e-05,0.000154056,3.54682e-05
5620,9.4683e-05,0.000153941,3.54247e-05
5625,9.46043e-05,0.000153827,3.53813e-05
5630,9.45256e-05,0.000153713,3.5338e-05
5635,9.44469e-05,0.000153599,3.52948e-05
5640,9.43684e-05,0.000153485,3.52516e-05
5645,9.42899e-05,0.000153371,3.52085e-05
5650,9.42115e-05,0.000153257,3.51655e-05
5655,9.41331e-05,0.000153144,3.51225e-05
5660,9.40548e-05,0.00015303,3.50796e-05
5665,9.39766e-05,0.000152916,3.50368e-05
5670,9.38985e-05,0.000152803,3.49941e-05
5675,9.38203e-05,0.000152689,3.49514e-05
5680,9.37423e-05,0.000152576,3.49089e-05
5685,9.36644e-05,0.000152462,3.48664e-05
5690,9.35865e-05,0.000152349,3.48239e-05
5695,9.35087e-05,0.000152236,3.47816e-05
5700,9.3431e-05,0.000152123,3.47393e-05
5705,9.33533e-05,0.00015201,3.46971e-05
5710,9.32757e-05,0.000151896,3.4655e-05
5715,9.31982e-05,0.000151783,3.46129e-05
5720,9.31207e-05,0.00015167,3.4571e-05
5725,9.30433e-05,0.000151558,3.45291e-05
5730,9.2966e-05,0.000151445,3.44872e-05
5735,9.28888e-05,0.000151332,3.44455e-05
5740,9.28116e-05,0.000151219,3.44038e-05
5745,9.27344e-05,0.000151107,3.43621e-05
5750,9.26574e-05,0.000150994,3.43206e-05
5755,9.25804e-05,0.000150882,3.42791e-05
5760,9.25035e-05,0.000150769,3.42377e-05
5765,9.24267e-05,0.000150657,3.41964e-05
5770,9.23499e-05,0.000150545,3.41551e-05
5775,9.22732e-05,0.000150432,3.41139e-05
5780,9.21965e-05,0.00015032,3.40728e-05
5785,9.212e-05,0.000150208,3.40318e-05
5790,9.20435e-05,0.000150096,3.39908e-05
5795,9.1967e-05,0.000149984,3.39499e-05
5800,9.18907e-05,0.000149872,3.3909e-05
5805,9.18144e-05,0.000149761,3.38683e-05
5810,9.17382e-05,0.000149649,3.38276e-05
5815,9.1662e-05,0.000149537,3.37869e-05
5820,9.15859e-05,0.000149425,3.37464e-05
5825,9.15099e-05,0.000149314,3.37059e-05
5830,9.1434e-05,0.000149202,3.36655e-05
5835,9.13581e-05,0.000149091,3.36252e-05
5840,9.12823e-05,0.00014898,3.35849e-05
5845,9.12065e-05,0.000148868,3.35447e-05
5850,9.11309e-05,0.000148757,3.35045e-05
5855,9.10553e-05,0.000148646,3.34645e-05
5860,9.09797e-05,0.000148535,3.34245e-05
5865,9.09043e-05,0.000148424,3.33845e-05
5870,9.08289e-05,0.000148313,3.33447e-05
5875,9.07536e-05,0.000148202,3.33049e-05
5880,9.06783e-05,0.000148091,3.32652e-05
5885,9.06031e-05,0.000147981,3.32255e-05
5890,9.0528e-05,0.00014787,3.31859e-05
5895,9.0453e-05,0.00014776,3.31464e-05
5900,9.0378e-05,0.000147649,3.31069e-05
5905,9.0303e-05,0.000147539,3.30675e-05
5910,9.02282e-05,0.000147428,3.30282e-05
5915,9.01534e-05,0.000147318,3.2989e-05
5920,9.00787e-05,0.000147208,3.29498e-05
5925,9.00041e-05,0.000147097,3.29106e-05
5930,8.99295e-05,0.000146987,3.28716e-05
5935,8.98551e-05,0.000146878,3.28326e-05
5940,8.97806e-05,0.000146768,3.27937e-05
5945,8.97062e-05,0.000146658,3.27548e-05
5950,8.9632e-05,0.000146548,3.27161e-05
5955,8.95577e-05,0.000146438,3.26773e-05
5960,8.94836e-05,0.000146329,3.26387e-05
5965,8.94095e-05,0.000146219,3.26001e-05
5970,8.93355e-05,0.000146109,3.25616e-05
5975,8.92615e-05,0.000146,3.25231e-05
5980,8.91877e-05,0.000145891,3.24847e-05
5985,8.91138e-05,0.000145781,3.24464e-05
5990,8.90401e-05,0.000145672,3.24082e-05
5995,8.89664e-05,0.000145563,3.23699e-05
6000,8.88928e-05,0.000145454,3.23318e-05
6005,8.88193e-05,0.000145345,3.22938e-05
6010,8.87459e-05,0.000145236,3.22558e-05
6015,8.86725e-05,0.000145127,3.22178e-05
6020,8.85992e-05,0.000145018,3.21799e-05
6025,8.85259e-05,0.00014491,3.21421e-05
6030,8.84527e-05,0.000144801,3.21044e-05
6035,8.83796e-05,0.000144692,3.20667e-05
6040,8.83065e-05,0.000144584,3.20291e-05
6045,8.82336e-05,0.000144476,3.19915e-05
6050,8.81606e-05,0.000144367,3.1954e-05
6055,8.80878e-05,0.000144259,3.19166e-05
6060,8.8015e-05,0.000144151,3.18793e-05
6065,8.79423e-05,0.000144043,3.18419e-05
6070,8.78696e-05,0.000143935,3.18047e-05
6075,8.77971e-05,0.000143827,3.17675e-05
6080,8.77246e-05,0.000143719,3.17304e-05
6085,8.76521e-05,0.000143611,3.16933e-05
6090,8.75798e-05,0.000143503,3.16564e-05
6095,8.75075e-05,0.000143396,3.16194e-05
6100,8.74353e-05,0.000143288,3.15826e-05
6105,8.73631e-05,0.00014318,3.15458e-05
6110,8.7291e-05,0.000143073,3.15091e-05
6115,8.7219e-05,0.000142966,3.14724e-05
6120,8.7147e-05,0.000142858,3.14357e-05
6125,8.70752e-05,0.000142751,3.13992e-05
6130,8.70033e-05,0.000142644,3.13627e-05
6135,8.69316e-05,0.000142537,3.13263e-05
6140,8.68599e-05,0.00014243,3.12899e-05
6145,8.67883e-05,0.000142323,3.12536e-05
6150,8.67167e-05,0.000142216,3.12173e-05
6155,8.66452e-05,0.000142109,3.11811e-05
6160,8.65739e-05,0.000142003,3.1145e-05
6165,8.65026e-05,0.000141896,3.1109e-05
6170,8.64312e-05,0.00014179,3.10729e-05
6175,8.63601e-05,0.000141683,3.1037e-05
6180,8.6289e-05,0.000141577,3.10011e-05
6185,8.62178e-05,0.00014147,3.09653e-05
6190,8.61469e-05,0.000141364,3.09295e-05
6195,8.60759e-05,0.000141258,3.08938e-05
6200,8.60051e-05,0.000141152,3.08581e-05
6205,8.59343e-05,0.000141046,3.08226e-05
6210,8.58636e-05,0.00014094,3.0787e-05
6215,8.57929e-05,0.000140834,3.07516e-05
6220,8.57223e-05,0.000140729,3.07162e-05
6225,8.56518e-05,0.000140623,3.06808e-05
6230,8.55813e-05,0.000140517,3.06455e-05
6235,8.5511e-05,0.000140412,3.06103e-05
6240,8.54407e-05,0.000140306,3.05751e-05
6245,8.53704e-05,0.000140201,3.054e-05
6250,8.53002e-05,0.000140095,3.05049e-05
6255,8.52301e-05,0.00013999,3.04699e-05
6260,8.51601e-05,0.000139885,3.0435e-05
6265,8.50901e-05,0.00013978,3.04001e-05
6270,8.50202e-05,0.000139675,3.03653e-05
6275,8.49503e-05,0.00013957,3.03305e-05
6280,8.48805e-05,0.000139465,3.02958e-05
6285,8.48108e-05,0.000139361,3.02611e-05
6290,8.47412e-05,0.000139256,3.02265e-05
6295,8.46716e-05,0.000139151,3.0192e-05
6300,8.46021e-05,0.000139047,3.01575e-05
6305,8.45327e-05,0.000138942,3.01231e-05
6310,8.44633e-05,0.000138838,3.00887e-05
6315,8.4394e-05,0.000138734,3.00544e-05
6320,8.43248e-05,0.000138629,3.00201e-05
6325,8.42556e-05,0.000138525,2.99859e-05
6330,8.41865e-05,0.000138421,2.99518e-05
6335,8.41175e-05,0.000138317,2.99177e-05
6340,8.40486e-05,0.000138213,2.98837e-05
6345,8.39796e-05,0.00013811,2.98497e-05
6350,8.39108e-05,0.000138006,2.98158e-05
6355,8.3842e-05,0.000137902,2.97819e-05
6360,8.37733e-05,0.000137799,2.97481e-05
6365,8.37047e-05,0.000137695,2.97144e-05
6370,8.36361e-05,0.000137592,2.96807e-05
6375,8.35676e-05,0.000137488,2.9647e-05
6380,8.34992e-05,0.000137385,2.96134e-05
6385,8.34309e-05,0.000137282,2.95799e-05
6390,8.33626e-05,0.000137179,2.95464e-05
6395,8.32944e-05,0.000137076,2.9513e-05
6400,8.32262e-05,0.000136973,2.94796e-05
6405,8.31581e-05,0.00013687,2.94463e-05
6410,8.309e-05,0.000136767,2.94131e-05
6415,8.30221e-05,0.000136664,2.93799e-05
6420,8.29542e-05,0.000136562,2.93467e-05
6425,8.28864e-05,0.000136459,2.93136e-05
6430,8.28186e-05,0.000136357,2.92806e-05
6435,8.27509e-05,0.000136254,2.92476e-05
6440,8.26833e-05,0.000136152,2.92147e-05
6445,8.26157e-05,0.00013605,2.91818e-05
6450,8.25482e-05,0.000135947,2.9149e-05
6455,8.24808e-05,0.000135845,2.91162e-05
6460,8.24135e-05,0.000135743,2.90835e-05
6465,8.23461e-05,0.000135641,2.90508e-05
6470,8.22789e-05,0.00013554,2.90182e-05
6475,8.22118e-05,0.000135438,2.89856e-05
6480,8.21447e-05,0.000135336,2.89532e-05
6485,8.20777e-05,0.000135235,2.89207e-05
6490,8.20107e-05,0.000135133,2.88883e-05
6495,8.19438e-05,0.000135032,2.88559e-05
6500,8.1877e-05,0.00013493,2.88237e-05
6505,8.18102e-05,0.000134829,2.87914e-05
6510,8.17435e-05,0.000134728,2.87592e-05
6515,8.16769e-05,0.000134627,2.87271e-05
6520,8.16103e-05,0.000134526,2.8695e-05
6525,8.15438e-05,0.000134425,2.8663e-05
6530,8.14774e-05,0.000134324,2.8631e-05
6535,8.1411e-05,0.000134223,2.85991e-05
6540,8.13447e-05,0.000134122,2.85672e-05
6545,8.12785e-05,0.000134022,2.85353e-05
6550,8.12123e-05,0.000133921,2.85036e-05
6555,8.11462e-05,0.000133821,2.84719e-05
6560,8.10802e-05,0.00013372,2.84402e-05
6565,8.10142e-05,0.00013362,2.84086e-05
6570,8.09483e-05,0.00013352,2.8377e-05
6575,8.08824e-05,0.000133419,2.83455e-05
6580,8.08166e-05,0.000133319,2.8314e-05
6585,8.07509e-05,0.000133219,2.82826e-05
6590,8.06853e-05,0.000133119,2.82512e-05
6595,8.06197e-05,0.00013302,2.82199e-05
6600,8.05542e-05,0.00013292,2.81886e-05
6605,8.04887e-05,0.00013282,2.81574e-05
6610,8.04233e-05,0.00013272,2.81262e-05
6615,8.0358e-05,0.000132621,2.80951e-05
6620,8.02928e-05,0.000132521,2.80641e-05
6625,8.02276e-05,0.000132422,2.80331e-05
6630,8.01625e-05,0.000132323,2.80021e-05
6635,8.00973e-05,0.000132224,2.79712e-05
6640,8.00324e-05,0.000132124,2.79403e-05
6645,7.99675e-05,0.000132025,2.79095e-05
6650,7.99026e-05,0.000131926,2.78787e-05
6655,7.98378e-05,0.000131828,2.7848e-05
6660,7.97731e-05,0.000131729,2.78173e-05
6665,7.97084e-05,0.00013163,2.77867e-05
6670,7.96438e-05,0.000131531,2.77561e-05
6675,7.95792e-05,0.000131433,2.77256e-05
6680,7.95147e-05,0.000131334,2.76951e-05
6685,7.94504e-05,0.000131236,2.76647e-05
6690,7.9386e-05,0.000131138,2.76343e-05
6695,7.93217e-05,0.000131039,2.7604e-05
6700,7.92575e-05,0.000130941,2.75737e-05
6705,7.91933e-05,0.000130843,2.75435e-05
6710,7.91293e-05,0.000130745,2.75133e-05
6715,7.90652e-05,0.000130647,2.74832e-05
6720,7.90013e-05,0.000130549,2.74531e-05
6725,7.89373e-05,0.000130452,2.74231e-05
6730,7.88735e-05,0.000130354,2.73931e-05
6735,7.88097e-05,0.000130256,2.73631e-05
6740,7.8746e-05,0.000130159,2.73332e-05
6745,7.86824e-05,0.000130061,2.73034e-05
6750,7.86188e-05,0.000129964,2.72736e-05
6755,7.85553e-05,0.000129867,2.72438e-05
6760,7.84918e-05,0.00012977,2.72141e-05
6765,7.84285e-05,0.000129672,2.71845e-05
6770,7.83651e-05,0.000129575,2.71549e-05
6775,7.83019e-05,0.000129478,2.71253e-05
6780,7.82387e-05,0.000129382,2.70958e-05
6785,7.81756e-05,0.000129285,2.70663e-05
6790,7.81125e-05,0.000129188,2.70369e-05
6795,7.80495e-05,0.000129091,2.70075e-05
6800,7.79865e-05,0.000128995,2.69782e-05
6805,7.79236e-05,0.000128898,2.69489e-05
6810,7.78608e-05,0.000128802,2.69196e-05
6815,7.77981e-05,0.000128706,2.68905e-05
6820,7.77354e-05,0.00012861,2.68613e-05
6825,7.76728e-05,0.000128513,2.68322e-05
6830,7.76102e-05,0.000128417,2.68031e-05
6835,7.75477e-05,0.000128321,2.67741e-05
6840,7.74853e-05,0.000128225,2.67452e-05
6845,7.74229e-05,0.00012813,2.67163e-05
6850,7.73606e-05,0.000128034,2.66874e-05
6855,7.72983e-05,0.000127938,2.66586e-05
6860,7.72362e-05,0.000127843,2.66298e-05
6865,7.7174e-05,0.000127747,2.6601e-05
6870,7.7112e-05,0.000127652,2.65723e-05
6875,7.705e-05,0.000127556,2.65437e-05
6880,7.69881e-05,0.000127461,2.65151e-05
6885,7.69262e-05,0.000127366,2.64865e-05
6890,7.68644e-05,0.000127271,2.6458e-05
6895,7.68026e-05,0.000127176,2.64296e-05
6900,7.6741e-05,0.000127081,2.64012e-05
6905,7.66793e-05,0.000126986,2.63728e-05
6910,7.66178e-05,0.000126891,2.63444e-05
6915,7.65563e-05,0.000126796,2.63162e-05
6920,7.64948e-05,0.000126702,2.62879e-05
6925,7.64335e-05,0.000126607,2.62597e-05
6930,7.63722e-05,0.000126513,2.62316e-05
6935,7.63109e-05,0.000126418,2.62034e-05
6940,7.62497e-05,0.000126324,2.61754e-05
6945,7.61886e-05,0.00012623,2.61474e-05
6950,7.61275e-05,0.000126136,2.61194e-05
6955,7.60666e-05,0.000126042,2.60914e-05
6960,7.60056e-05,0.000125948,2.60635e-05
6965,7.59447e-05,0.000125854,2.60357e-05
6970,7.58839e-05,0.00012576,2.60079e-05
6975,7.58231e-05,0.000125666,2.59801e-05
6980,7.57625e-05,0.000125573,2.59524e-05
6985,7.57018e-05,0.000125479,2.59247e-05
6990,7.56413e-05,0.000125385,2.58971e-05
6995,7.55808e-05,0.000125292,2.58695e-05
7000,7.55204e-05,0.000125199,2.5842e-05
7005,7.546e-05,0.000125105,2.58145e-05
7010,7.53996e-05,0.000125012,2.5787e-05
7015,7.53394e-05,0.000124919,2.57596e-05
7020,7.52792e-05,0.000124826,2.57322e-05
7025,7.5219e-05,0.000124733,2.57049e-05
7030,7.5159e-05,0.00012464,2.56776e-05
7035,7.50989e-05,0.000124548,2.56503e-05
7040,7.5039e-05,0.000124455,2.56231e-05
7045,7.49791e-05,0.000124362,2.5596e-05
7050,7.49193e-05,0.00012427,2.55688e-05
7055,7.48595e-05,0.000124177,2.55417e-05
7060,7.47998e-05,0.000124085,2.55147e-05
7065,7.47401e-05,0.000123993,2.54877e-05
7070,7.46805e-05,0.0001239,2.54607e-05
7075,7.4621e-05,0.000123808,2.54338e-05
7080,7.45615e-05,0.000123716,2.5407e-05
7085,7.45021e-05,0.000123624,2.53801e-05
7090,7.44428e-05,0.000123532,2.53533e-05
7095,7.43835e-05,0.00012344,2.53266e-05
7100,7.43243e-05,0.000123349,2.52999e-05
7105,7.42651e-05,0.000123257,2.52732e-05
7110,7.4206e-05,0.000123165,2.52466e-05
7115,7.4147e-05,0.000123074,2.522e-05
7120,7.4088e-05,0.000122982,2.51935e-05
7125,7.4029e-05,0.000122891,2.5167e-05
7130,7.39702e-05,0.0001228,2.51405e-05
7135,7.39114e-05,0.000122709,2.51141e-05
7140,7.38526e-05,0.000122618,2.50877e-05
7145,7.3794e-05,0.000122527,2.50614e-05
7150,7.37353e-05,0.000122436,2.5035e-05
7155,7.36768e-05,0.000122345,2.50088e-05
7160,7.36182e-05,0.000122254,2.49826e-05
7165,7.35598e-05,0.000122163,2.49564e-05
7170,7.35014e-05,0.000122073,2.49303e-05
7175,7.34431e-05,0.000121982,2.49042e-05
7180,7.33848e-05,0.000121892,2.48781e-05
7185,7.33266e-05,0.000121801,2.48521e-05
7190,7.32684e-05,0.000121711,2.48261e-05
7195,7.32104e-05,0.000121621,2.48001e-05
7200,7.31523e-05,0.00012153,2.47742e-05
7205,7.30944e-05,0.00012144,2.47484e-05
7210,7.30364e-05,0.00012135,2.47226e-05
7215,7.29786e-05,0.00012126,2.46968e-05
7220,7.29208e-05,0.000121171,2.4671e-05
7225,7.28631e-05,0.000121081,2.46453e-05
7230,7.28054e-05,0.000120991,2.46197e-05
7235,7.27478e-05,0.000120902,2.4594e-05
7240,7.26902e-05,0.000120812,2.45685e-05
7245,7.26327e-05,0.000120723,2.45429e-05
7250,7.25753e-05,0.000120633,2.45174e-05
7255,7.25179e-05,0.000120544,2.44919e-05
7260,7.24606e-05,0.000120455,2.44665e-05
7265,7.24033e-05,0.000120366,2.44411e-05
7270,7.23461e-05,0.000120277,2.44158e-05
7275,7.2289e-05,0.000120187,2.43904e-05
7280,7.22319e-05,0.000120099,2.43652e-05
7285,7.21749e-05,0.00012001,2.43399e-05
7290,7.21179e-05,0.000119921,2.43147e-05
7295,7.2061e-05,0.000119832,2.42896e-05
7300,7.20041e-05,0.000119744,2.42644e-05
7305,7.19473e-05,0.000119655,2.42394e-05
7310,7.18906e-05,0.000119567,2.42143e-05
7315,7.18339e-05,0.000119478,2.41893e-05
7320,7.17773e-05,0.00011939,2.41643e-05
7325,7.17207e-05,0.000119302,2.41394e-05
7330,7.16642e-05,0.000119214,2.41145e-05
7335,7.16077e-05,0.000119126,2.40896e-05
7340,7.15513e-05,0.000119038,2.40648e-05
7345,7.1495e-05,0.00011895,2.404e-05
7350,7.14388e-05,0.000118862,2.40153e-05
7355,7.13825e-05,0.000118774,2.39906e-05
7360,7.13264e-05,0.000118687,2.39659e-05
7365,7.12703e-05,0.000118599,2.39412e-05
7370,7.12142e-05,0.000118512,2.39167e-05
7375,7.11582e-05,0.000118424,2.38921e-05
7380,7.11023e-05,0.000118337,2.38676e-05
7385,7.10464e-05,0.00011825,2.38431e-05
7390,7.09906e-05,0.000118163,2.38186e-05
7395,7.09348e-05,0.000118075,2.37942e-05
7400,7.08791e-05,0.000117988,2.37698e-05
7405,7.08235e-05,0.000117902,2.37455e-05
7410,7.07679e-05,0.000117815,2.37212e-05
7415,7.07124e-05,0.000117728,2.36969e-05
7420,7.06569e-05,0.000117641,2.36727e-05
7425,7.06015e-05,0.000117555,2.36485e-05
7430,7.05461e-05,0.000117468,2.36243e-05
7435,7.04908e-05,0.000117381,2.36002e-05
7440,7.04356e-05,0.000117295,2.35761e-05
7445,7.03804e-05,0.000117209,2.35521e-05
7450,7.03253e-05,0.000117122,2.35281e-05
7455,7.02702e-05,0.000117036,2.35041e-05
7460,7.02151e-05,0.00011695,2.34801e-05
7465,7.01602e-05,0.000116864,2.34562e-05
7470,7.01053e-05,0.000116778,2.34323e-05
7475,7.00504e-05,0.000116692,2.34085e-05
7480,6.99956e-05,0.000116607,2.33847e-05
7485,6.99409e-05,0.000116521,2.33609e-05
7490,6.98862e-05,0.000116435,2.33372e-05
7495,6.98316e-05,0.00011635,2.33135e-05
7500,6.9777e-05,0.000116264,2.32898e-05
7505,6.97225e-05,0.000116179,2.32662e-05
7510,6.9668e-05,0.000116093,2.32426e-05
7515,6.96136e-05,0.000116008,2.32191e-05
7520,6.95593e-05,0.000115923,2.31956e-05
7525,6.9505e-05,0.000115838,2.31721e-05
7530,6.94507e-05,0.000115753,2.31486e-05
7535,6.93965e-05,0.000115668,2.31252e-05
7540,6.93424e-05,0.000115583,2.31018e-05
7545,6.92883e-05,0.000115498,2.30785e-05
7550,6.92343e-05,0.000115414,2.30552e-05
7555,6.91804e-05,0.000115329,2.30319e-05
7560,6.91265e-05,0.000115244,2.30087e-05
7565,6.90726e-05,0.00011516,2.29855e-05
7570,6.90188e-05,0.000115075,2.29623e-05
7575,6.89651e-05,0.000114991,2.29391e-05
7580,6.89114e-05,0.000114907,2.2916e-05
7585,6.88578e-05,0.000114823,2.2893e-05
7590,6.88042e-05,0.000114739,2.28699e-05
7595,6.87507e-05,0.000114654,2.28469e-05
7600,6.86973e-05,0.000114571,2.28239e-05
7605,6.86438e-05,0.000114487,2.2801e-05
7610,6.85905e-05,0.000114403,2.27781e-05
7615,6.85372e-05,0.000114319,2.27553e-05
7620,6.8484e-05,0.000114236,2.27324e-05
7625,6.84308e-05,0.000114152,2.27096e-05
7630,6.83776e-05,0.000114068,2.26869e-05
7635,6.83245e-05,0.000113985,2.26641e-05
7640,6.82715e-05,0.000113902,2.26414e-05
7645,6.82185e-05,0.000113818,2.26187e-05
7650,6.81656e-05,0.000113735,2.25961e-05
7655,6.81127e-05,0.000113652,2.25735e-05
7660,6.806e-05,0.000113569,2.25509e-05
7665,6.80072e-05,0.000113486,2.25284e-05
7670,6.79545e-05,0.000113403,2.25059e-05
7675,6.79018e-05,0.00011332,2.24834e-05
7680,6.78493e-05,0.000113238,2.2461e-05
7685,6.77968e-05,0.000113155,2.24386e-05
7690,6.77442e-05,0.000113072,2.24162e-05
7695,6.76918e-05,0.00011299,2.23939e-05
7700,6.76394e-05,0.000112907,2.23716e-05
7705,6.75871e-05,0.000112825,2.23493e-05
7710,6.75348e-05,0.000112743,2.23271e-05
7715,6.74826e-05,0.00011266,2.23049e-05
7720,6.74305e-05,0.000112578,2.22827e-05
7725,6.73783e-05,0.000112496,2.22606e-05
7730,6.73263e-05,0.000112414,2.22385e-05
7735,6.72743e-05,0.000112332,2.22164e-05
7740,6.72223e-05,0.00011225,2.21943e-05
7745,6.71705e-05,0.000112169,2.21723e-05
7750,6.71186e-05,0.000112087,2.21503e-05
7755,6.70668e-05,0.000112005,2.21284e-05
7760,6.70151e-05,0.000111924,2.21065e-05
7765,6.69634e-05,0.000111842,2.20846e-05
7770,6.69118e-05,0.000111761,2.20627e-05
7775,6.68602e-05,0.000111679,2.20409e-05
7780,6.68086e-05,0.000111598,2.20191e-05
7785,6.67572e-05,0.000111517,2.19973e-05
7790,6.67058e-05,0.000111436,2.19756e-05
7795,6.66544e-05,0.000111355,2.19539e-05
7800,6.66031e-05,0.000111274,2.19322e-05
7805,6.65519e-05,0.000111193,2.19106e-05
7810,6.65006e-05,0.000111112,2.1889e-05
7815,6.64495e-05,0.000111031,2.18675e-05
7820,6.63984e-05,0.000110951,2.18459e-05
7825,6.63473e-05,0.00011087,2.18244e-05
7830,6.62963e-05,0.00011079,2.18029e-05
7835,6.62454e-05,0.000110709,2.17815e-05
7840,6.61945e-05,0.000110629,2.17601e-05
7845,6.61436e-05,0.000110549,2.17387e-05
7850,6.60929e-05,0.000110468,2.17173e-05
7855,6.60421e-05,0.000110388,2.1696e-05
7860,6.59914e-05,0.000110308,2.16747e-05
7865,6.59408e-05,0.000110228,2.16535e-05
7870,6.58902e-05,0.000110148,2.16322e-05
7875,6.58397e-05,0.000110068,2.1611e-05
7880,6.57892e-05,0.000109989,2.15899e-05
7885,6.57388e-05,0.000109909,2.15687e-05
7890,6.56884e-05,0.000109829,2.15476e-05
7895,6.56381e-05,0.00010975,2.15265e-05
7900,6.55878e-05,0.00010967,2.15055e-05
7905,6.55376e-05,0.000109591,2.14845e-05
7910,6.54874e-05,0.000109511,2.14635e-05
7915,6.54373e-05,0.000109432,2.14425e-05
7920,6.53872e-05,0.000109353,2.14216e-05
7925,6.53373e-05,0.000109274,2.14007e-05
7930,6.52873e-05,0.000109195,2.13799e-05
7935,6.52373e-05,0.000109116,2.1359e-05
7940,6.51875e-05,0.000109037,2.13382e-05
7945,6.51377e-05,0.000108958,2.13174e-05
7950,6.50879e-05,0.000108879,2.12967e-05
7955,6.50382e-05,0.0001088,2.12759e-05
7960,6.49885e-05,0.000108722,2.12553e-05
7965,6.4939e-05,0.000108643,2.12346e-05
7970,6.48894e-05,0.000108565,2.1214e-05
7975,6.48399e-05,0.000108486,2.11934e-05
7980,6.47904e-05,0.000108408,2.11728e-05
7985,6.4741e-05,0.00010833,2.11523e-05
7990,6.46917e-05,0.000108252,2.11318e-05
7995,6.46424e-05,0.000108174,2.11113e-05
8000,6.45931e-05,0.000108095,2.10908e-05
8005,6.45439e-05,0.000108017,2.10704e-05
8010,6.44948e-05,0.00010794,2.105e-05
8015,6.44457e-05,0.000107862,2.10296e-05
8020,6.43966e-05,0.000107784,2.10093e-05
8025,6.43476e-05,0.000107706,2.0989e-05
8030,6.42987e-05,0.000107629,2.09687e-05
8035,6.42498e-05,0.000107551,2.09485e-05
8040,6.42009e-05,0.000107474,2.09282e-05
8045,6.41521e-05,0.000107396,2.0908e-05
8050,6.41034e-05,0.000107319,2.08879e-05
8055,6.40547e-05,0.000107242,2.08678e-05
8060,6.4006e-05,0.000107164,2.08476e-05
8065,6.39574e-05,0.000107087,2.08276e-05
8070,6.39089e-05,0.00010701,2.08075e-05
8075,6.38604e-05,0.000106933,2.07875e-05
8080,6.38119e-05,0.000106856,2.07675e-05
8085,6.37635e-05,0.00010678,2.07475e-05
8090,6.37152e-05,0.000106703,2.07276e-05
8095,6.36669e-05,0.000106626,2.07077e-05
8100,6.36186e-05,0.000106549,2.06878e-05
8105,6.35704e-05,0.000106473,2.06679e-05
8110,6.35223e-05,0.000106396,2.06481e-05
8115,6.34741e-05,0.00010632,2.06283e-05
8120,6.34261e-05,0.000106244,2.06086e-05
8125,6.33781e-05,0.000106167,2.05888e-05
8130,6.33302e-05,0.000106091,2.05691e-05
8135,6.32822e-05,0.000106015,2.05494e-05
8140,6.32344e-05,0.000105939,2.05298e-05
8145,6.31865e-05,0.000105863,2.05101e-05
8150,6.31388e-05,0.000105787,2.04905e-05
8155,6.30911e-05,0.000105711,2.0471e-05
8160,6.30434e-05,0.000105635,2.04514e-05
8165,6.29958e-05,0.00010556,2.04319e-05
8170,6.29482e-05,0.000105484,2.04124e-05
8175,6.29007e-05,0.000105409,2.03929e-05
8180,6.28532e-05,0.000105333,2.03735e-05
8185,6.28058e-05,0.000105258,2.03541e-05
8190,6.27584e-05,0.000105182,2.03347e-05
8195,6.27111e-05,0.000105107,2.03153e-05
8200,6.26638e-05,0.000105032,2.0296e-05
8205,6.26166e-05,0.000104956,2.02767e-05
8210,6.25694e-05,0.000104881,2.02574e-05
8215,6.25223e-05,0.000104806,2.02382e-05
8220,6.24752e-05,0.000104731,2.0219e-05
8225,6.24282e-05,0.000104657,2.01998e-05
8230,6.23812e-05,0.000104582,2.01806e-05
8235,6.23342e-05,0.000104507,2.01615e-05
8240,6.22873e-05,0.000104432,2.01423e-05
8245,6.22405e-05,0.000104358,2.01232e-05
8250,6.21937e-05,0.000104283,2.01042e-05
8255,6.21469e-05,0.000104209,2.00852e-05
8260,6.21003e-05,0.000104134,2.00662e-05
8265,6.20536e-05,0.00010406,2.00472e-05
8270,6.2007e-05,0.000103986,2.00282e-05
8275,6.19604e-05,0.000103912,2.00093e-05
8280,6.19139e-05,0.000103837,1.99904e-05
8285,6.18674e-05,0.000103763,1.99715e-05
8290,6.18211e-05,0.000103689,1.99527e-05
8295,6.17746e-05,0.000103615,1.99338e-05
8300,6.17284e-05,0.000103542,1.9915e-05
8305,6.16821e-05,0.000103468,1.98963e-05
8310,6.16359e-05,0.000103394,1.98775e-05
8315,6.15897e-05,0.000103321,1.98588e-05
8320,6.15435e-05,0.000103247,1.98401e-05
8325,6.14974e-05,0.000103173,1.98214e-05
8330,6.14514e-05,0.0001031,1.98028e-05
8335,6.14054e-05,0.000103027,1.97842e-05
8340,6.13595e-05,0.000102953,1.97656e-05
8345,6.13136e-05,0.00010288,1.9747e-05
8350,6.12677e-05,0.000102807,1.97285e-05
8355,6.12219e-05,0.000102734,1.971e-05
8360,6.11762e-05,0.000102661,1.96915e-05
8365,6.11304e-05,0.000102588,1.9673e-05
8370,6.10848e-05,0.000102515,1.96546e-05
8375,6.10392e-05,0.000102442,1.96362e-05
8380,6.09936e-05,0.000102369,1.96178e-05
8385,6.0948e-05,0.000102297,1.95995e-05
8390,6.09026e-05,0.000102224,1.95811e-05
8395,6.08572e-05,0.000102152,1.95628e-05
8400,6.08118e-05,0.000102079,1.95445e-05
8405,6.07664e-05,0.000102007,1.95262e-05
8410,6.07211e-05,0.000101934,1.9508e-05
8415,6.06759e-05,0.000101862,1.94898e-05
8420,6.06307e-05,0.00010179,1.94716e-05
8425,6.05855e-05,0.000101718,1.94535e-05
8430,6.05404e-05,0.000101645,1.94353e-05
8435,6.04953e-05,0.000101573,1.94172e-05
8440,6.04503e-05,0.000101501,1.93991e-05
8445,6.04053e-05,0.00010143,1.93811e-05
8450,6.03604e-05,0.000101358,1.93631e-05
8455,6.03155e-05,0.000101286,1.9345e-05
8460,6.02707e-05,0.000101214,1.93271e-05
8465,6.02259e-05,0.000101143,1.93091e-05
8470,6.01811e-05,0.000101071,1.92912e-05
8475,6.01364e-05,0.000101,1.92733e-05
8480,6.00918e-05,0.000100928,1.92554e-05
8485,6.00472e-05,0.000100857,1.92375e-05
8490,6.00026e-05,0.000100786,1.92197e-05
8495,5.99581e-05,0.000100714,1.92019e-05
8500,5.99136e-05,0.000100643,1.91841e-05
8505,5.98692e-05,0.000100572,1.91663e-05
8510,5.98248e-05,0.000100501,1.91486e-05
8515,5.97805e-05,0.00010043,1.91308e-05
8520,5.97362e-05,0.000100359,1.91131e-05
8525,5.96919e-05,0.000100288,1.90955e-05
8530,5.96477e-05,0.000100218,1.90778e-05
8535,5.96036e-05,0.000100147,1.90602e-05
8540,5.95594e-05,0.000100076,1.90426e-05
8545,5.95154e-05,0.000100006,1.9025e-05
8550,5.94713e-05,9.99352e-05,1.90075e-05
8555,5.94273e-05,9.98647e-05,1.899e-05
8560,5.93834e-05,9.97944e-05,1.89725e-05
8565,5.93395e-05,9.97241e-05,1.8955e-05
8570,5.92957e-05,9.96538e-05,1.89375e-05
8575,5.92519e-05,9.95836e-05,1.89201e-05
8580,5.92081e-05,9.95135e-05,1.89027e-05
8585,5.91644e-05,9.94435e-05,1.88853e-05
8590,5.91207e-05,9.93735e-05,1.8868e-05
8595,5.90771e-05,9.93036e-05,1.88506e-05
8600,5.90335e-05,9.92337e-05,1.88333e-05
8605,5.899e-05,9.9164e-05,1.8816e-05
8610,5.89465e-05,9.90942e-05,1.87988e-05
8615,5.89031e-05,9.90246e-05,1.87815e-05
8620,5.88596e-05,9.8955e-05,1.87643e-05
8625,5.88163e-05,9.88855e-05,1.87471e-05
8630,5.8773e-05,9.8816e-05,1.87299e-05
8635,5.87297e-05,9.87466e-05,1.87128e-05
8640,5.86865e-05,9.86772e-05,1.86957e-05
8645,5.86433e-05,9.8608e-05,1.86786e-05
8650,5.86001e-05,9.85388e-05,1.86615e-05
8655,5.8557e-05,9.84696e-05,1.86444e-05
8660,5.8514e-05,9.84006e-05,1.86274e-05
8665,5.8471e-05,9.83315e-05,1.86104e-05
8670,5.8428e-05,9.82626e-05,1.85934e-05
8675,5.83851e-05,9.81937e-05,1.85764e-05
8680,5.83422e-05,9.81248e-05,1.85595e-05
8685,5.82993e-05,9.80561e-05,1.85426e-05
8690,5.82565e-05,9.79874e-05,1.85257e-05
8695,5.82138e-05,9.79187e-05,1.85088e-05
8700,5.81711e-05,9.78502e-05,1.8492e-05
8705,5.81284e-05,9.77817e-05,1.84751e-05
8710,5.80858e-05,9.77133e-05,1.84583e-05
8715,5.80432e-05,9.76449e-05,1.84415e-05
8720,5.80007e-05,9.75766e-05,1.84248e-05
8725,5.79582e-05,9.75083e-05,1.8408e-05
8730,5.79157e-05,9.74401e-05,1.83913e-05
8735,5.78733e-05,9.7372e-05,1.83746e-05
8740,5.7831e-05,9.7304e-05,1.8358e-05
8745,5.77886e-05,9.7236e-05,1.83413e-05
8750,5.77463e-05,9.7168e-05,1.83247e-05
8755,5.77041e-05,9.71001e-05,1.83081e-05
8760,5.76619e-05,9.70323e-05,1.82915e-05
8765,5.76198e-05,9.69646e-05,1.82749e-05
8770,5.75777e-05,9.68969e-05,1.82584e-05
8775,5.75356e-05,9.68292e-05,1.82419e-05
8780,5.74936e-05,9.67617e-05,1.82254e-05
8785,5.74516e-05,9.66942e-05,1.82089e-05
8790,5.74096e-05,9.66268e-05,1.81925e-05
8795,5.73677e-05,9.65594e-05,1.81761e-05
8800,5.73259e-05,9.64921e-05,1.81597e-05
8805,5.72841e-05,9.64248e-05,1.81433e-05
8810,5.72423e-05,9.63577e-05,1.81269e-05
8815,5.72006e-05,9.62906e-05,1.81106e-05
8820,5.71589e-05,9.62235e-05,1.80943e-05
8825,5.71172e-05,9.61565e-05,1.8078e-05
8830,5.70756e-05,9.60896e-05,1.80617e-05
8835,5.70341e-05,9.60227e-05,1.80454e-05
8840,5.69925e-05,9.59559e-05,1.80292e-05
8845,5.6951e-05,9.58891e-05,1.8013e-05
8850,5.69096e-05,9.58224e-05,1.79968e-05
8855,5.68682e-05,9.57558e-05,1.79806e-05
8860,5.68269e-05,9.56892e-05,1.79645e-05
8865,5.67855e-05,9.56227e-05,1.79484e-05
8870,5.67443e-05,9.55563e-05,1.79323e-05
8875,5.67031e-05,9.54899e-05,1.79162e-05
8880,5.66619e-05,9.54236e-05,1.79001e-05
8885,5.66207e-05,9.53574e-05,1.78841e-05
8890,5.65796e-05,9.52912e-05,1.78681e-05
8895,5.65385e-05,9.5225e-05,1.78521e-05
8900,5.64975e-05,9.5159e-05,1.78361e-05
8905,5.64566e-05,9.5093e-05,1.78201e-05
8910,5.64156e-05,9.5027e-05,1.78042e-05
8915,5.63747e-05,9.49612e-05,1.77883e-05
8920,5.63339e-05,9.48953e-05,1.77724e-05
8925,5.6293e-05,9.48295e-05,1.77565e-05
8930,5.62522e-05,9.47638e-05,1.77407e-05
8935,5.62115e-05,9.46982e-05,1.77249e-05
8940,5.61708e-05,9.46326e-05,1.7709e-05
8945,5.61302e-05,9.45671e-05,1.76933e-05
8950,5.60896e-05,9.45017e-05,1.76775e-05
8955,5.6049e-05,9.44363e-05,1.76617e-05
8960,5.60085e-05,9.43709e-05,1.7646e-05
8965,5.5968e-05,9.43056e-05,1.76303e-05
8970,5.59275e-05,9.42404e-05,1.76146e-05
8975,5.58871e-05,9.41752e-05,1.7599e-05
8980,5.58467e-05,9.41101e-05,1.75833e-05
8985,5.58064e-05,9.40451e-05,1.75677e-05
8990,5.57661e-05,9.39801e-05,1.75521e-05
8995,5.57258e-05,9.39152e-05,1.75365e-05
9000,5.56857e-05,9.38504e-05,1.7521e-05
9005,5.56455e-05,9.37856e-05,1.75054e-05
9010,5.56054e-05,9.37208e-05,1.74899e-05
9015,5.55653e-05,9.36561e-05,1.74744e-05
9020,5.55252e-05,9.35915e-05,1.74589e-05
9025,5.54852e-05,9.3527e-05,1.74435e-05
9030,5.54453e-05,9.34625e-05,1.7428e-05
9035,5.54053e-05,9.3398e-05,1.74126e-05
9040,5.53654e-05,9.33336e-05,1.73972e-05
9045,5.53256e-05,9.32693e-05,1.73818e-05
9050,5.52858e-05,9.32051e-05,1.73665e-05
9055,5.5246e-05,9.31409e-05,1.73511e-05
9060,5.52063e-05,9.30768e-05,1.73358e-05
9065,5.51666e-05,9.30127e-05,1.73205e-05
9070,5.51269e-05,9.29486e-05,1.73053e-05
9075,5.50873e-05,9.28847e-05,1.729e-05
9080,5.50478e-05,9.28208e-05,1.72748e-05
9085,5.50082e-05,9.2757e-05,1.72595e-05
9090,5.49688e-05,9.26932e-05,1.72443e-05
9095,5.49293e-05,9.26294e-05,1.72292e-05
9100,5.48899e-05,9.25657e-05,1.7214e-05
9105,5.48505e-05,9.25022e-05,1.71989e-05
9110,5.48112e-05,9.24386e-05,1.71837e-05
9115,5.47719e-05,9.23751e-05,1.71686e-05
9120,5.47326e-05,9.23117e-05,1.71536e-05
9125,5.46934e-05,9.22483e-05,1.71385e-05
9130,5.46542e-05,9.2185e-05,1.71235e-05
9135,5.46151e-05,9.21218e-05,1.71084e-05
9140,5.4576e-05,9.20585e-05,1.70934e-05
9145,5.45369e-05,9.19954e-05,1.70785e-05
9150,5.44979e-05,9.19323e-05,1.70635e-05
9155,5.44589e-05,9.18693e-05,1.70486e-05
9160,5.442e-05,9.18063e-05,1.70336e-05
9165,5.43811e-05,9.17435e-05,1.70187e-05
9170,5.43422e-05,9.16806e-05,1.70038e-05
9175,5.43034e-05,9.16178e-05,1.6989e-05
9180,5.42646e-05,9.1555e-05,1.69741e-05
9185,5.42259e-05,9.14924e-05,1.69593e-05
9190,5.41872e-05,9.14298e-05,1.69445e-05
9195,5.41485e-05,9.13673e-05,1.69297e-05
9200,5.41098e-05,9.13047e-05,1.69149e-05
9205,5.40713e-05,9.12423e-05,1.69002e-05
9210,5.40327e-05,9.11799e-05,1.68854e-05
9215,5.39941e-05,9.11176e-05,1.68707e-05
9220,5.39557e-05,9.10553e-05,1.6856e-05
9225,5.39172e-05,9.09931e-05,1.68413e-05
9230,5.38788e-05,9.09309e-05,1.68267e-05
9235,5.38404e-05,9.08689e-05,1.6812e-05
9240,5.38021e-05,9.08068e-05,1.67974e-05
9245,5.37638e-05,9.07448e-05,1.67828e-05
9250,5.37256e-05,9.06829e-05,1.67682e-05
9255,5.36873e-05,9.0621e-05,1.67537e-05
9260,5.36492e-05,9.05592e-05,1.67391e-05
9265,5.36111e-05,9.04975e-05,1.67246e-05
9270,5.35729e-05,9.04358e-05,1.67101e-05
9275,5.35349e-05,9.03742e-05,1.66956e-05
9280,5.34968e-05,9.03125e-05,1.66811e-05
9285,5.34589e-05,9.0251e-05,1.66667e-05
9290,5.34209e-05,9.01896e-05,1.66523e-05
9295,5.3383e-05,9.01281e-05,1.66378e-05
9300,5.33451e-05,9.00668e-05,1.66234e-05
9305,5.33073e-05,9.00055e-05,1.66091e-05
9310,5.32695e-05,8.99443e-05,1.65947e-05
9315,5.32317e-05,8.9883e-05,1.65804e-05
9320,5.3194e-05,8.9822e-05,1.65661e-05
9325,5.31563e-05,8.97609e-05,1.65518e-05
9330,5.31187e-05,8.96999e-05,1.65375e-05
9335,5.3081e-05,8.96389e-05,1.65232e-05
9340,5.30435e-05,8.9578e-05,1.65089e-05
9345,5.30059e-05,8.95172e-05,1.64947e-05
9350,5.29684e-05,8.94563e-05,1.64805e-05
9355,5.29309e-05,8.93956e-05,1.64663e-05
9360,5.28935e-05,8.9335e-05,1.64521e-05
9365,5.28561e-05,8.92743e-05,1.6438e-05
9370,5.28188e-05,8.92137e-05,1.64238e-05
9375,5.27815e-05,8.91532e-05,1.64097e-05
9380,5.27442e-05,8.90928e-05,1.63956e-05
9385,5.2707e-05,8.90324e-05,1.63815e-05
9390,5.26697e-05,8.8972e-05,1.63674e-05
9395,5.26326e-05,8.89118e-05,1.63534e-05
9400,5.25954e-05,8.88515e-05,1.63394e-05
9405,5.25584e-05,8.87914e-05,1.63253e-05
9410,5.25213e-05,8.87312e-05,1.63113e-05
9415,5.24842e-05,8.86711e-05,1.62974e-05
9420,5.24473e-05,8.86111e-05,1.62834e-05
9425,5.24103e-05,8.85512e-05,1.62695e-05
9430,5.23734e-05,8.84913e-05,1.62555e-05
9435,5.23365e-05,8.84315e-05,1.62416e-05
9440,5.22997e-05,8.83717e-05,1.62277e-05
9445,5.22629e-05,8.83119e-05,1.62139e-05
9450,5.22261e-05,8.82522e-05,1.62e-05
9455,5.21894e-05,8.81926e-05,1.61862e-05
9460,5.21527e-05,8.81331e-05,1.61723e-05
9465,5.2116e-05,8.80735e-05,1.61585e-05
9470,5.20794e-05,8.80141e-05,1.61448e-05
9475,5.20428e-05,8.79547e-05,1.6131e-05
9480,5.20063e-05,8.78953e-05,1.61172e-05
9485,5.19697e-05,8.7836e-05,1.61035e-05
9490,5.19333e-05,8.77768e-05,1.60898e-05
9495,5.18968e-05,8.77176e-05,1.60761e-05
9500,5.18604e-05,8.76584e-05,1.60624e-05
9505,5.18241e-05,8.75994e-05,1.60487e-05
9510,5.17877e-05,8.75404e-05,1.60351e-05
9515,5.17514e-05,8.74814e-05,1.60214e-05
9520,5.17152e-05,8.74225e-05,1.60078e-05
9525,5.16789e-05,8.73636e-05,1.59942e-05
9530,5.16427e-05,8.73048e-05,1.59807e-05
9535,5.16066e-05,8.7246e-05,1.59671e-05
9540,5.15705e-05,8.71874e-05,1.59536e-05
9545,5.15343e-05,8.71287e-05,1.594e-05
9550,5.14983e-05,8.70701e-05,1.59265e-05
9555,5.14623e-05,8.70116e-05,1.5913e-05
9560,5.14263e-05,8.69531e-05,1.58995e-05
9565,5.13904e-05,8.68946e-05,1.58861e-05
9570,5.13544e-05,8.68363e-05,1.58726e-05
9575,5.13186e-05,8.6778e-05,1.58592e-05
9580,5.12827e-05,8.67197e-05,1.58458e-05
9585,5.12469e-05,8.66615e-05,1.58324e-05
9590,5.12112e-05,8.66033e-05,1.5819e-05
9595,5.11754e-05,8.65452e-05,1.58057e-05
9600,5.11397e-05,8.64871e-05,1.57923e-05
9605,5.11041e-05,8.64291e-05,1.5779e-05
9610,5.10684e-05,8.63712e-05,1.57657e-05
9615,5.10328e-05,8.63133e-05,1.57524e-05
9620,5.09973e-05,8.62554e-05,1.57391e-05
9625,5.09618e-05,8.61977e-05,1.57259e-05
9630,5.09263e-05,8.61399e-05,1.57126e-05
9635,5.08908e-05,8.60823e-05,1.56994e-05
9640,5.08554e-05,8.60246e-05,1.56862e-05
9645,5.082e-05,8.5967e-05,1.5673e-05
9650,5.07846e-05,8.59095e-05,1.56598e-05
9655,5.07493e-05,8.5852e-05,1.56466e-05
9660,5.0714e-05,8.57946e-05,1.56335e-05
9665,5.06788e-05,8.57373e-05,1.56204e-05
9670,5.06436e-05,8.56799e-05,1.56072e-05
9675,5.06084e-05,8.56226e-05,1.55942e-05
9680,5.05733e-05,8.55654e-05,1.55811e-05
9685,5.05382e-05,8.55083e-05,1.5568e-05
9690,5.05031e-05,8.54512e-05,1.5555e-05
9695,5.0468e-05,8.53941e-05,1.55419e-05
9700,5.0433e-05,8.53372e-05,1.55289e-05
9705,5.0398e-05,8.52802e-05,1.55159e-05
9710,5.03631e-05,8.52233e-05,1.55029e-05
9715,5.03282e-05,8.51665e-05,1.549e-05
9720,5.02933e-05,8.51097e-05,1.5477e-05
9725,5.02585e-05,8.50529e-05,1.54641e-05
9730,5.02237e-05,8.49962e-05,1.54512e-05
9735,5.01889e-05,8.49396e-05,1.54383e-05
9740,5.01542e-05,8.4883e-05,1.54254e-05
9745,5.01195e-05,8.48265e-05,1.54125e-05
9750,5.00848e-05,8.477e-05,1.53997e-05
9755,5.00502e-05,8.47136e-05,1.53868e-05
9760,5.00156e-05,8.46572e-05,1.5374e-05
9765,4.9981e-05,8.46008e-05,1.53612e-05
9770,4.99465e-05,8.45446e-05,1.53484e-05
9775,4.9912e-05,8.44883e-05,1.53356e-05
9780,4.98775e-05,8.44322e-05,1.53229e-05
9785,4.98431e-05,8.43761e-05,1.53101e-05
9790,4.98087e-05,8.432e-05,1.52974e-05
9795,4.97743e-05,8.4264e-05,1.52847e-05
9800,4.974e-05,8.4208e-05,1.5272e-05
9805,4.97057e-05,8.41521e-05,1.52593e-05
9810,4.96715e-05,8.40963e-05,1.52466e-05
9815,4.96372e-05,8.40405e-05,1.5234e-05
9820,4.9603e-05,8.39846e-05,1.52213e-05
9825,4.95688e-05,8.39289e-05,1.52087e-05
9830,4.95347e-05,8.38733e-05,1.51961e-05
9835,4.95006e-05,8.38176e-05,1.51835e-05
9840,4.94665e-05,8.37621e-05,1.5171e-05
9845,4.94325e-05,8.37066e-05,1.51584e-05
9850,4.93985e-05,8.36511e-05,1.51458e-05
9855,4.93645e-05,8.35958e-05,1.51333e-05
9860,4.93306e-05,8.35404e-05,1.51208e-05
9865,4.92967e-05,8.34851e-05,1.51083e-05
9870,4.92629e-05,8.34299e-05,1.50958e-05
9875,4.9229e-05,8.33746e-05,1.50834e-05
9880,4.91952e-05,8.33195e-05,1.50709e-05
9885,4.91614e-05,8.32644e-05,1.50585e-05
9890,4.91277e-05,8.32093e-05,1.50461e-05
9895,4.9094e-05,8.31543e-05,1.50337e-05
9900,4.90603e-05,8.30994e-05,1.50213e-05
9905,4.90267e-05,8.30445e-05,1.50089e-05
9910,4.8993e-05,8.29896e-05,1.49965e-05
9915,4.89595e-05,8.29348e-05,1.49842e-05
9920,4.89259e-05,8.288e-05,1.49719e-05
9925,4.88924e-05,8.28253e-05,1.49596e-05
9930,4.8859e-05,8.27707e-05,1.49473e-05
9935,4.88255e-05,8.27161e-05,1.4935e-05
9940,4.87921e-05,8.26616e-05,1.49227e-05
9945,4.87587e-05,8.2607e-05,1.49104e-05
9950,4.87254e-05,8.25526e-05,1.48982e-05
9955,4.86921e-05,8.24982e-05,1.4886e-05
9960,4.86588e-05,8.24438e-05,1.48738e-05
9965,4.86256e-05,8.23895e-05,1.48616e-05
9970,4.85923e-05,8.23353e-05,1.48494e-05
9975,4.85592e-05,8.22811e-05,1.48372e-05
9980,4.8526e-05,8.22269e-05,1.48251e-05
9985,4.84929e-05,8.21728e-05,1.48129e-05
9990,4.84598e-05,8.21187e-05,1.48008e-05
9995,4.84267e-05,8.20647e-05,1.47887e-05
10000,4.83937e-05,8.20108e-05,1.47766e-05
